p,graph,opinion_seed
0.1,0,7324889441490255881
0.1,1,6356719903618070184
0.1,2,6932471725801486406
0.1,3,9116910422455650850
0.1,4,8356187233907991492
0.5,0,3646908523128238113
0.5,1,7247129699672696750
0.5,2,7266708145044719833
0.5,3,5356495038631596584
0.5,4,3160591019346006407
