c,mu,delta,gamma,opinion_set,sim_seed
0.1,0.1,0.5,0.1,0,4077823079406517007
0.1,0.3,0.5,0.1,2,5741362378539297336
0.1,0.3,0.5,0.1,8,3197242148784784271
0.2,0.1,0.5,0.1,0,8739513045738145304
0.2,0.3,0.5,0.1,8,5532669063486433097
0.3,0.1,0.5,0.1,0,4185313933671261272
0.1,0.1,0.5,0.1,6,3254676899130842712
0.2,0.1,0.5,0.1,6,8439084933136279607
0.2,0.5,0.5,0.1,4,8419365439850087616
0.1,0.5,0.5,0.1,4,1029362417051520945
0.3,0.1,0.5,0.1,6,2799318686297452486
0.2,0.3,0.5,0.1,2,4470973177414751922
0.2,0.3,0.5,0.1,9,6180047001065899759
0.2,0.5,0.5,0.1,5,6626692521769941570
0.2,0.3,0.5,0.1,3,6617625678538148764
0.1,0.3,0.5,0.1,9,7388282716885444822
0.1,0.3,0.5,0.1,3,1930752002738297260
0.2,0.3,0.5,0.1,4,1565623809713146768
0.2,0.1,0.5,0.1,7,3142821308357650402
0.2,0.5,0.5,0.1,6,842132846578674343
0.3,0.1,0.5,0.1,1,6328573492786621381
0.2,0.5,0.5,0.1,7,3160274596667267137
0.2,0.3,0.5,0.1,5,2274796461506030305
0.2,0.5,0.5,0.1,8,1739658686914705181
0.3,0.1,0.5,0.1,2,1343656050202118253
0.2,0.5,0.5,0.1,9,1790247872726028082
0.3,0.3,0.5,0.1,2,108996177420319605
0.3,0.3,0.5,0.1,3,1538843448377479716
0.2,0.3,0.5,0.1,6,4646295289822353748
0.3,0.3,0.5,0.1,4,1676051430360565216
0.2,0.3,0.5,0.1,7,6831908789840641445
0.3,0.3,0.5,0.1,8,4377868565760760324
0.1,0.3,0.5,0.1,4,1032278300779415563
0.3,0.3,0.5,0.1,5,8529576912338120461
0.3,0.3,0.5,0.1,6,1666112759667019630
0.3,0.3,0.5,0.1,7,1613080575934788100
0.3,0.5,0.5,0.1,4,6267612597253368787
0.1,0.3,0.5,0.1,5,6326499587475918248
0.3,0.5,0.5,0.1,5,4597552646028333750
0.3,0.5,0.5,0.1,6,848030091886145380
0.3,0.5,0.5,0.1,7,6287584106613197242
0.3,0.5,0.5,0.1,8,2358524128495497387
0.3,0.5,0.5,0.1,9,329394326507586423
0.4,0.1,0.5,0.1,0,8654229095177849741
0.4,0.1,0.5,0.1,1,4949005528351726704
0.4,0.1,0.5,0.1,2,226280527180567941
0.4,0.1,0.5,0.1,3,2479785753256627991
0.4,0.1,0.5,0.1,4,8429252177175600334
0.4,0.1,0.5,0.1,5,3316665874474750012
0.4,0.1,0.5,0.1,6,4358030373302952901
0.4,0.1,0.5,0.1,7,1523134363902232105
0.4,0.1,0.5,0.1,8,3758898927286666574
0.4,0.1,0.5,0.1,9,2959667160721398809
0.4,0.3,0.5,0.1,0,1872055394053890591
0.4,0.3,0.5,0.1,1,7073921578893589686
0.4,0.3,0.5,0.1,2,520589067856753006
0.4,0.3,0.5,0.1,3,2594156583107232191
0.4,0.3,0.5,0.1,4,1643933789864777769
0.4,0.3,0.5,0.1,5,8075290451434706955
0.2,0.1,0.5,0.1,1,7604772322917584984
0.4,0.3,0.5,0.1,6,4122815079347579861
0.4,0.3,0.5,0.1,7,6690982356927444362
0.4,0.3,0.5,0.1,8,5883035999851194784
0.4,0.3,0.5,0.1,9,6916854798805419819
0.4,0.5,0.5,0.1,0,6461859330913165076
0.4,0.5,0.5,0.1,1,7268123952219566591
0.4,0.5,0.5,0.1,2,8177778597259342765
0.4,0.5,0.5,0.1,3,7675893803726656067
0.4,0.5,0.5,0.1,4,1174781990606939319
0.4,0.5,0.5,0.1,5,4902859058694444273
0.4,0.5,0.5,0.1,6,7440450115747674418
0.4,0.5,0.5,0.1,7,8368251850533681129
0.2,0.5,0.5,0.1,0,7695168212316808707
0.4,0.5,0.5,0.1,8,8830494068758557525
0.4,0.5,0.5,0.1,9,8358271981911738800
0.2,0.5,0.5,0.1,1,7160144348582700666
0.5,0.1,0.5,0.1,0,8055935526019270690
0.5,0.1,0.5,0.1,1,194048896422819185
0.2,0.5,0.5,0.1,2,7145770363013041203
0.1,0.5,0.5,0.1,5,8213142227036511357
0.2,0.5,0.5,0.1,3,8444979983140209416
0.5,0.1,0.5,0.1,2,1013449477609535231
0.5,0.1,0.5,0.1,6,1018364285575619406
0.1,0.5,0.5,0.1,6,3712542239197503651
0.5,0.1,0.5,0.1,3,6032941884130118592
0.5,0.1,0.5,0.1,7,3469812331852198867
0.5,0.1,0.5,0.1,4,7767953272902545628
0.1,0.5,0.5,0.1,7,3731815987376644670
0.5,0.1,0.5,0.1,8,5849711528573231877
0.5,0.1,0.5,0.1,5,428275439257816586
0.5,0.1,0.5,0.1,9,7409410371404004037
0.1,0.5,0.5,0.1,8,6368798111002419095
0.5,0.3,0.5,0.1,2,7194731991336345291
0.5,0.3,0.5,0.1,0,1828687736749477212
0.5,0.3,0.5,0.1,3,6983895545727169491
0.5,0.3,0.5,0.1,1,462254087977405127
0.5,0.3,0.5,0.1,8,956808348697165595
0.5,0.3,0.5,0.1,4,6535556079638723920
0.5,0.3,0.5,0.1,9,5441282005451608741
0.5,0.3,0.5,0.1,5,4305101102726768567
0.5,0.5,0.5,0.1,0,3472210258954082228
0.5,0.3,0.5,0.1,6,1572935533248267372
0.1,0.5,0.5,0.1,9,3005709813706995955
0.5,0.5,0.5,0.1,1,8449959230561156421
0.5,0.3,0.5,0.1,7,1624108856835726800
0.5,0.5,0.5,0.1,2,8650457066557521566
0.5,0.5,0.5,0.1,4,7501335062392227664
0.5,0.5,0.5,0.1,3,3185506953066826096
0.1,0.1,0.5,0.1,7,9128645288937291338
0.6,0.1,0.5,0.1,0,3315438506594616546
0.5,0.5,0.5,0.1,5,3288926125207038830
0.5,0.5,0.5,0.1,6,7054597318034187696
0.5,0.5,0.5,0.1,7,4344812600302925061
0.6,0.1,0.5,0.1,1,5978915770831383853
0.5,0.5,0.5,0.1,8,7469890541844358266
0.5,0.5,0.5,0.1,9,6269466219967716194
0.6,0.1,0.5,0.1,2,8682891059161354351
0.6,0.1,0.5,0.1,6,1189267980677453639
0.3,0.3,0.5,0.1,9,8671145964759946537
0.6,0.1,0.5,0.1,3,8864167054571999234
0.6,0.1,0.5,0.1,7,7282092458009052432
0.3,0.5,0.5,0.1,0,8338741417611232998
0.3,0.5,0.5,0.1,1,7124592927250833522
0.6,0.1,0.5,0.1,4,518049597205026969
0.6,0.1,0.5,0.1,8,6457548535784314307
0.3,0.5,0.5,0.1,2,2050201688563557063
0.6,0.1,0.5,0.1,5,5641216062641739636
0.3,0.5,0.5,0.1,3,9082901298815449415
0.6,0.1,0.5,0.1,9,878889464761952681
0.6,0.3,0.5,0.1,2,571708249725162326
0.6,0.3,0.5,0.1,3,2939627256529959304
0.6,0.3,0.5,0.1,8,2376134971469085913
0.6,0.5,0.5,0.1,4,1610151838208590443
0.6,0.3,0.5,0.1,0,7773493651314523400
0.6,0.3,0.5,0.1,4,7367723553872067830
0.6,0.3,0.5,0.1,9,4835450702764680874
0.6,0.5,0.5,0.1,5,1236887640734505553
0.6,0.3,0.5,0.1,1,8808560966359630086
0.6,0.5,0.5,0.1,6,8023658166604082306
0.6,0.3,0.5,0.1,5,1391825377869354718
0.6,0.5,0.5,0.1,0,7396402181641936321
0.7,0.1,0.5,0.1,0,5656227747156116321
0.6,0.5,0.5,0.1,7,5024745402902115306
0.6,0.3,0.5,0.1,6,3783920029751004719
0.6,0.5,0.5,0.1,1,6165245417101508449
0.6,0.5,0.5,0.1,8,2554022661361547554
0.6,0.5,0.5,0.1,2,7636618240014840946
0.6,0.3,0.5,0.1,7,6474110456976069819
0.6,0.5,0.5,0.1,9,1695184668904722535
0.6,0.5,0.5,0.1,3,8920785469207775939
0.7,0.1,0.5,0.1,1,8072490121971248691
0.7,0.1,0.5,0.1,6,7964880648932182704
0.7,0.3,0.5,0.1,2,5170199118282731533
0.7,0.3,0.5,0.1,8,7573511358992241121
0.7,0.3,0.5,0.1,3,8504098241571436303
0.7,0.3,0.5,0.1,9,8623436566063290139
0.7,0.3,0.5,0.1,4,5468332420260138851
0.7,0.1,0.5,0.1,2,2694413212182869031
0.7,0.1,0.5,0.1,7,7437087836339119904
0.7,0.5,0.5,0.1,0,4046198760979242907
0.7,0.3,0.5,0.1,5,6224869923673307971
0.7,0.5,0.5,0.1,1,4034730543149710311
0.7,0.3,0.5,0.1,6,5368561301718739523
0.7,0.5,0.5,0.1,2,2045731443244035896
0.7,0.3,0.5,0.1,7,8205870349572460477
0.7,0.1,0.5,0.1,3,3636879755974084146
0.7,0.1,0.5,0.1,8,5977972400768986324
0.7,0.5,0.5,0.1,3,3154564717443685428
0.7,0.5,0.5,0.1,4,5255851823075817558
0.8,0.1,0.5,0.1,0,4838364690160662349
0.7,0.5,0.5,0.1,5,573412057779906687
0.7,0.1,0.5,0.1,9,7957558095628060246
0.7,0.1,0.5,0.1,4,4541206540587322336
0.7,0.5,0.5,0.1,6,4762472765592789326
0.1,0.1,0.5,0.1,8,6791679115254958718
0.8,0.1,0.5,0.1,1,6533381593723986090
0.7,0.5,0.5,0.1,7,8876524262736464906
0.7,0.5,0.5,0.1,8,6044954053076807484
0.7,0.3,0.5,0.1,0,145858348586419312
0.7,0.1,0.5,0.1,5,7142566251975977903
0.7,0.5,0.5,0.1,9,3666962384482493279
0.8,0.1,0.5,0.1,2,3994517371687963699
0.7,0.3,0.5,0.1,1,6185007239721323314
0.8,0.1,0.5,0.1,6,4328170126306821052
0.8,0.3,0.5,0.1,2,7111876598027741811
0.8,0.3,0.5,0.1,8,8473630281690301656
0.8,0.3,0.5,0.1,3,6346566133300481884
0.8,0.1,0.5,0.1,3,3518092541827476611
0.8,0.3,0.5,0.1,9,7894546135034033270
0.8,0.1,0.5,0.1,7,335499813071326540
0.8,0.3,0.5,0.1,4,7058258895277318851
0.8,0.5,0.5,0.1,0,4823835699713421570
0.2,0.1,0.5,0.1,8,906362843140966506
0.8,0.3,0.5,0.1,5,4895008082064646260
0.8,0.5,0.5,0.1,1,4079108233297694141
0.8,0.1,0.5,0.1,4,6424967010271765040
0.8,0.1,0.5,0.1,8,1074265676048116338
0.8,0.3,0.5,0.1,6,6196534412112288507
0.8,0.5,0.5,0.1,2,6579536457127338178
0.8,0.3,0.5,0.1,7,124937942970429099
0.8,0.5,0.5,0.1,3,3530949558208433813
0.8,0.1,0.5,0.1,5,2056796397712732553
0.8,0.5,0.5,0.1,4,2109328580534566452
0.9,0.1,0.5,0.1,0,7017503977598171729
0.8,0.1,0.5,0.1,9,8283853190673029048
0.8,0.5,0.5,0.1,5,1173127714421036690
0.8,0.5,0.5,0.1,6,1756363107950507521
0.9,0.1,0.5,0.1,6,276340168277424746
0.9,0.1,0.5,0.1,1,7878709039808815825
0.8,0.5,0.5,0.1,7,8889177741394305666
0.8,0.3,0.5,0.1,0,1502435604570225743
0.8,0.5,0.5,0.1,8,5545415031891970632
0.8,0.3,0.5,0.1,1,5596883617162943559
0.8,0.5,0.5,0.1,9,867683656444392778
0.9,0.1,0.5,0.1,2,1698198251444409258
0.9,0.1,0.5,0.1,7,2788050970580829311
0.9,0.3,0.5,0.1,2,2026658709285383084
0.9,0.3,0.5,0.1,8,8029299234928694667
0.3,0.1,0.5,0.1,3,2443702821121491940
0.9,0.3,0.5,0.1,9,6338890762484109229
0.9,0.3,0.5,0.1,3,1399353839232863184
0.9,0.1,0.5,0.1,3,5132387887889220127
0.9,0.1,0.5,0.1,8,3197709565583197272
0.9,0.5,0.5,0.1,0,6749340910433083308
0.9,0.3,0.5,0.1,4,7939767728450626839
0.9,0.5,0.5,0.1,1,7258389906743161254
0.9,0.3,0.5,0.1,5,5856718064433057728
0.9,0.5,0.5,0.1,2,4310971512651030738
0.9,0.1,0.5,0.1,4,5486062968157720069
0.9,0.3,0.5,0.1,6,7587826512771660166
0.9,0.1,0.5,0.1,9,6895535544353749379
0.9,0.5,0.5,0.1,3,6499367799520791540
0.9,0.5,0.5,0.1,4,6177295808571665265
0.9,0.3,0.5,0.1,7,2799802305183578358
0.9,0.1,0.5,0.1,5,2719652757480250801
0.9,0.5,0.5,0.1,5,8369902262989756936
0.9,0.3,0.5,0.1,0,7108773012646114912
0.9,0.5,0.5,0.1,6,5745715435744506551
0.9,0.3,0.5,0.1,1,7633714305052356086
0.9,0.5,0.5,0.1,7,38508869730549990
0.9,0.5,0.5,0.1,8,6158475409761477340
0.9,0.5,0.5,0.1,9,9172265291222372657
0.1,0.3,0.5,0.1,6,4406887928712072868
0.1,0.3,0.5,0.1,7,5171298983653055450
0.2,0.1,0.5,0.1,9,7019385450854234820
0.3,0.1,0.5,0.1,4,4116246419924779056
0.3,0.1,0.5,0.1,5,5961900095314648846
0.2,0.3,0.5,0.1,0,5244213665933571488
0.2,0.1,0.5,0.1,2,2540515636994158034
0.2,0.1,0.5,0.1,3,376414808769761214
0.1,0.5,0.5,0.1,0,7114220201136813486
0.1,0.5,0.5,0.1,1,4201236722136663498
0.1,0.5,0.5,0.1,2,6508536616305011467
0.1,0.5,0.5,0.1,3,1336656866408973472
0.2,0.1,0.5,0.1,4,4915820581810092452
0.2,0.1,0.5,0.1,5,2465888933633946803
0.2,0.3,0.5,0.1,1,4674210600838894660
0.3,0.1,0.5,0.1,7,551214638020721287
0.3,0.1,0.5,0.1,8,7255376473764945405
0.3,0.1,0.5,0.1,9,3901323414930567747
0.3,0.3,0.5,0.1,0,7921717164520950261
0.3,0.3,0.5,0.1,1,2016175624858608797
0.1,0.1,0.5,0.1,9,250206900812193483
0.1,0.1,0.5,0.1,1,5457378719058517979
0.1,0.1,0.5,0.1,2,8128031350166872973
0.1,0.1,0.5,0.1,3,6024134017331844521
0.1,0.1,0.5,0.1,4,586367982342900497
0.1,0.1,0.5,0.1,5,7320173498725446691
0.1,0.3,0.5,0.1,0,7091902940222606828
0.1,0.3,0.5,0.1,1,5479079055321908380
0.1,0.1,1.0,0.0,0,2539095919384600053
0.1,0.5,1.0,0.0,8,8694711692985346948
0.2,0.3,1.0,0.0,2,579913190999044207
0.2,0.5,1.0,0.0,6,1151991017280173166
0.1,0.3,1.0,0.0,4,5766437187858160608
0.2,0.5,1.0,0.0,7,1547023828518237755
0.2,0.3,1.0,0.0,3,609252479810925643
0.1,0.5,1.0,0.0,9,8648982460681453013
0.1,0.3,1.0,0.0,5,2945058339462539198
0.2,0.5,1.0,0.0,8,3833619785316214964
0.2,0.5,1.0,0.0,9,2268946650461087994
0.2,0.3,1.0,0.0,4,1517249425206432370
0.1,0.3,1.0,0.0,6,7565187720328377368
0.2,0.1,1.0,0.0,0,3171125902818543332
0.3,0.1,1.0,0.0,0,5362099040423154353
0.2,0.3,1.0,0.0,5,6265273124493339111
0.3,0.1,1.0,0.0,2,816415329533101360
0.1,0.3,1.0,0.0,3,6954235059229969638
0.2,0.3,1.0,0.0,6,8394089941244325847
0.2,0.3,1.0,0.0,7,4643370076684390521
0.3,0.1,1.0,0.0,3,3503613130564183642
0.2,0.1,1.0,0.0,1,4056484356963807567
0.2,0.3,1.0,0.0,8,7832061593353004042
0.1,0.1,1.0,0.0,1,8907641994000000536
0.2,0.3,1.0,0.0,9,1600239603161590650
0.3,0.1,1.0,0.0,4,8476227052797558329
0.1,0.3,1.0,0.0,7,5275781269421950746
0.2,0.1,1.0,0.0,2,8559372635602922027
0.2,0.5,1.0,0.0,0,4809731421878426775
0.2,0.5,1.0,0.0,1,6189082696297942697
0.1,0.3,1.0,0.0,8,5659694171518234525
0.3,0.1,1.0,0.0,5,676950743156731769
0.2,0.5,1.0,0.0,2,564084891035540033
0.2,0.5,1.0,0.0,3,6116680798511252943
0.1,0.3,1.0,0.0,9,7110143998713631837
0.3,0.1,1.0,0.0,6,1140861756900461332
0.2,0.5,1.0,0.0,4,6379757334960080223
0.2,0.1,1.0,0.0,3,5676436248744181309
0.2,0.5,1.0,0.0,5,2731656859999016079
0.1,0.5,1.0,0.0,0,7797106745399432888
0.3,0.1,1.0,0.0,7,2094102018261697846
0.1,0.5,1.0,0.0,1,8124984393502946618
0.3,0.1,1.0,0.0,1,6614515229853960810
0.1,0.1,1.0,0.0,2,5771269728708279356
0.2,0.1,1.0,0.0,4,2198947231273039966
0.1,0.5,1.0,0.0,2,4253516791010082327
0.3,0.1,1.0,0.0,8,6863222571666977936
0.3,0.3,1.0,0.0,5,8031287611736772703
0.1,0.5,1.0,0.0,3,4987717432143732688
0.3,0.3,1.0,0.0,6,5127727708371723600
0.2,0.1,1.0,0.0,5,5299970876467379406
0.3,0.1,1.0,0.0,9,8062311561696382768
0.3,0.3,1.0,0.0,7,7680860739472258761
0.1,0.5,1.0,0.0,4,4267240099405900673
0.3,0.3,1.0,0.0,8,1986294732487556023
0.3,0.3,1.0,0.0,9,8570224901072604103
0.1,0.5,1.0,0.0,5,8506127318481332824
0.3,0.3,1.0,0.0,0,6312927366748077693
0.2,0.1,1.0,0.0,6,6783692494709387931
0.3,0.5,1.0,0.0,0,968370396257918345
0.1,0.5,1.0,0.0,6,6307016139376109866
0.3,0.3,1.0,0.0,1,4156502481350443695
0.3,0.5,1.0,0.0,1,3828527229578930391
0.3,0.3,1.0,0.0,2,265517037408061390
0.3,0.5,1.0,0.0,2,706218240750365441
0.2,0.1,1.0,0.0,7,3795560420255324375
0.3,0.5,1.0,0.0,3,1512135893462776009
0.3,0.3,1.0,0.0,3,1865949746332786745
0.1,0.5,1.0,0.0,7,3156168755144040449
0.1,0.1,1.0,0.0,3,7400502638605334782
0.3,0.5,1.0,0.0,4,7582059271049950153
0.3,0.3,1.0,0.0,4,4805424598026457047
0.3,0.5,1.0,0.0,5,9159487858435005246
0.3,0.5,1.0,0.0,8,9141750410650716180
0.4,0.3,1.0,0.0,1,7891767793263107017
0.3,0.5,1.0,0.0,9,8979120181689702221
0.3,0.5,1.0,0.0,6,3229590032074508411
0.4,0.3,1.0,0.0,2,4341705788850775701
0.4,0.1,1.0,0.0,0,7726510964742699207
0.3,0.5,1.0,0.0,7,5176209940028462071
0.4,0.3,1.0,0.0,3,6441269278412687653
0.4,0.5,1.0,0.0,4,3658691612990179856
0.4,0.3,1.0,0.0,4,1703608446853644077
0.4,0.5,1.0,0.0,5,7601448395182607827
0.4,0.1,1.0,0.0,1,567282730982534560
0.4,0.3,1.0,0.0,5,8175157845337905383
0.4,0.5,1.0,0.0,6,1894450564364264795
0.4,0.3,1.0,0.0,6,8862200453801319068
0.4,0.5,1.0,0.0,7,2781252752018987507
0.2,0.1,1.0,0.0,8,8157493385053432345
0.4,0.3,1.0,0.0,7,5602929022420447498
0.4,0.1,1.0,0.0,2,1802517890625450091
0.4,0.5,1.0,0.0,8,2756300685064975063
0.1,0.1,1.0,0.0,4,5139119281138674480
0.4,0.3,1.0,0.0,8,5399603110029540207
0.4,0.5,1.0,0.0,9,1044262276640146452
0.4,0.3,1.0,0.0,9,856291063461458147
0.5,0.1,1.0,0.0,0,629673236074058797
0.4,0.1,1.0,0.0,3,5733129365625359724
0.4,0.5,1.0,0.0,0,5642996524574577104
0.4,0.5,1.0,0.0,1,810810995571400584
0.5,0.1,1.0,0.0,1,6868044221586190052
0.2,0.1,1.0,0.0,9,2455722448513982431
0.4,0.5,1.0,0.0,2,1633339989534892176
0.4,0.1,1.0,0.0,4,5533074760634407872
0.4,0.5,1.0,0.0,3,7776813612686262059
0.5,0.1,1.0,0.0,2,8012435894168019437
0.5,0.1,1.0,0.0,7,499374735730868206
0.4,0.1,1.0,0.0,5,6826923696756942474
0.5,0.1,1.0,0.0,3,1820796019452359584
0.5,0.1,1.0,0.0,8,9060918052356477557
0.1,0.1,1.0,0.0,5,4947891672062995995
0.2,0.3,1.0,0.0,0,8841504629563098699
0.4,0.1,1.0,0.0,6,2774989590751117125
0.5,0.1,1.0,0.0,4,834454134263325543
0.5,0.1,1.0,0.0,9,3019553099163674364
0.2,0.3,1.0,0.0,1,2400334025895833726
0.5,0.1,1.0,0.0,5,4511855572575612509
0.4,0.1,1.0,0.0,7,1907530235564898498
0.5,0.3,1.0,0.0,0,7616904190634110461
0.5,0.3,1.0,0.0,1,1484123288495925092
0.5,0.3,1.0,0.0,2,7602535644557306672
0.5,0.1,1.0,0.0,6,2498454504474547972
0.4,0.1,1.0,0.0,8,27219636643651676
0.5,0.5,1.0,0.0,0,3152797366185056861
0.5,0.3,1.0,0.0,3,6439366135595258015
0.1,0.1,1.0,0.0,6,5358233515114824894
0.5,0.5,1.0,0.0,1,2944908337156334534
0.5,0.3,1.0,0.0,4,8764508138146153938
0.5,0.5,1.0,0.0,2,6375831051179576919
0.6,0.1,1.0,0.0,3,8409354295763193073
0.5,0.3,1.0,0.0,5,551279596423752487
0.5,0.5,1.0,0.0,3,3681872975339001003
0.4,0.1,1.0,0.0,9,5584199325641880773
0.5,0.3,1.0,0.0,6,772498056994772069
0.5,0.5,1.0,0.0,4,2725103093283040958
0.6,0.1,1.0,0.0,4,2053736664615334897
0.5,0.3,1.0,0.0,7,6689848664101053857
0.5,0.5,1.0,0.0,5,5097955564810443585
0.5,0.5,1.0,0.0,6,6366746945551978367
0.5,0.3,1.0,0.0,8,3824528635781084208
0.4,0.3,1.0,0.0,0,4943166126284517907
0.5,0.5,1.0,0.0,7,2216350980356305531
0.6,0.1,1.0,0.0,5,1451396002760882222
0.5,0.3,1.0,0.0,9,6930521818534845810
0.6,0.3,1.0,0.0,6,2883799622299698907
0.5,0.5,1.0,0.0,8,7413569527114357866
0.6,0.3,1.0,0.0,7,8857099505259237242
0.6,0.5,1.0,0.0,9,5033948100387059323
0.5,0.5,1.0,0.0,9,5051729744321063294
0.7,0.1,1.0,0.0,0,7354300651454164080
0.6,0.3,1.0,0.0,8,3921541996360869221
0.6,0.1,1.0,0.0,0,408709975812957432
0.6,0.1,1.0,0.0,6,5915350742091896829
0.6,0.3,1.0,0.0,9,5565789188577753213
0.6,0.5,1.0,0.0,0,5187195343000728459
0.6,0.1,1.0,0.0,1,5547952400436825488
0.7,0.1,1.0,0.0,1,6526447904236073896
0.6,0.1,1.0,0.0,7,595812654661939479
0.6,0.5,1.0,0.0,1,1345276299471203518
0.6,0.5,1.0,0.0,2,554323601903508487
0.6,0.5,1.0,0.0,3,8093771577983382203
0.6,0.1,1.0,0.0,2,8282807687683393809
0.7,0.1,1.0,0.0,2,6317885871932893817
0.6,0.5,1.0,0.0,4,4255047915567649850
0.6,0.1,1.0,0.0,8,4439718703437913607
0.1,0.1,1.0,0.0,7,6653088780528804418
0.6,0.5,1.0,0.0,5,2164584318679782820
0.7,0.1,1.0,0.0,3,2510175619206238094
0.6,0.5,1.0,0.0,6,1139786176671142594
0.7,0.3,1.0,0.0,2,2789772929552684134
0.6,0.1,1.0,0.0,9,865801969972566632
0.6,0.5,1.0,0.0,7,9145568374973034903
0.7,0.3,1.0,0.0,3,8763123360139703005
0.6,0.5,1.0,0.0,8,5368413026498068864
0.7,0.1,1.0,0.0,4,2952716988918084261
0.7,0.3,1.0,0.0,4,8639878356130891232
0.7,0.5,1.0,0.0,5,8314574041298462544
0.6,0.3,1.0,0.0,0,3838762417702741486
0.7,0.3,1.0,0.0,5,3157783243375650178
0.7,0.5,1.0,0.0,6,8633899464334127376
0.6,0.3,1.0,0.0,1,7631646391370714743
0.7,0.3,1.0,0.0,6,5936917020439683937
0.7,0.5,1.0,0.0,7,8863104552611252756
0.7,0.1,1.0,0.0,5,7612520879398287057
0.6,0.3,1.0,0.0,2,9115298497712100489
0.7,0.5,1.0,0.0,8,4568460198387559631
0.7,0.3,1.0,0.0,7,2501653781659925397
0.7,0.5,1.0,0.0,9,4776188591416013290
0.7,0.3,1.0,0.0,8,225440182821529567
0.6,0.3,1.0,0.0,3,7927332360975584223
0.8,0.1,1.0,0.0,0,2213253989986231348
0.7,0.1,1.0,0.0,6,226180134650612510
0.7,0.3,1.0,0.0,9,2583445747365773103
0.6,0.3,1.0,0.0,4,5772545152284536920
0.7,0.5,1.0,0.0,0,6635829339361140849
0.6,0.3,1.0,0.0,5,7042334125479997240
0.7,0.5,1.0,0.0,1,4699612928112340977
0.8,0.1,1.0,0.0,1,1570768783467671634
0.7,0.1,1.0,0.0,7,6334233507095862095
0.7,0.5,1.0,0.0,2,7072850029762433831
0.8,0.1,1.0,0.0,8,3781255099086426464
0.1,0.1,1.0,0.0,8,1968895484331617571
0.7,0.5,1.0,0.0,3,8400978318010988760
0.8,0.1,1.0,0.0,2,3115639632405128576
0.7,0.5,1.0,0.0,4,5958522357006074168
0.7,0.1,1.0,0.0,8,3390081115500226302
0.8,0.1,1.0,0.0,9,3189379259320421947
0.8,0.5,1.0,0.0,1,706540330590140353
0.8,0.5,1.0,0.0,2,5796793357736290587
0.8,0.1,1.0,0.0,3,440647764619728609
0.8,0.5,1.0,0.0,3,3867240907380692256
0.7,0.1,1.0,0.0,9,4005917324777823168
0.8,0.3,1.0,0.0,0,4130509388287605647
0.8,0.5,1.0,0.0,4,7458163107691106302
0.8,0.3,1.0,0.0,1,7209010544188327970
0.8,0.5,1.0,0.0,5,698624231131299722
0.8,0.1,1.0,0.0,4,2420186098927389127
0.8,0.5,1.0,0.0,6,6320878452116409682
0.8,0.3,1.0,0.0,2,1627350367185322287
0.7,0.3,1.0,0.0,0,5855655640496684855
0.8,0.5,1.0,0.0,7,3492756865197000241
0.8,0.3,1.0,0.0,3,6182458814767659131
0.7,0.3,1.0,0.0,1,9011837231721026148
0.8,0.5,1.0,0.0,8,2881324483954264333
0.8,0.1,1.0,0.0,5,1618327379046632466
0.9,0.1,1.0,0.0,4,5586072343792194543
0.8,0.3,1.0,0.0,4,8752353982615812898
0.8,0.5,1.0,0.0,9,2233821513196968080
0.8,0.3,1.0,0.0,5,1834110696486655518
0.9,0.1,1.0,0.0,0,2176310877117770752
0.9,0.1,1.0,0.0,5,4741165484981965322
0.8,0.1,1.0,0.0,6,5955809383822585914
0.8,0.3,1.0,0.0,6,6982133482087650489
0.8,0.3,1.0,0.0,7,4687188676222121239
0.9,0.1,1.0,0.0,1,8234350906890658300
0.8,0.1,1.0,0.0,7,834337145532440328
0.8,0.3,1.0,0.0,8,8347966195451806862
0.9,0.1,1.0,0.0,6,7015281637792427052
0.8,0.3,1.0,0.0,9,8985640158775906231
0.9,0.1,1.0,0.0,2,1065950677836359949
0.9,0.3,1.0,0.0,7,4279917775184760721
0.8,0.5,1.0,0.0,0,3695737737035623782
0.9,0.1,1.0,0.0,7,5679183383899286893
0.9,0.3,1.0,0.0,8,752746668603207863
0.9,0.1,1.0,0.0,3,7270858182774474634
0.9,0.3,1.0,0.0,9,2997592936462296513
0.9,0.1,1.0,0.0,8,6131293047578463846
0.1,0.1,1.0,0.0,9,8226054824995807998
0.9,0.5,1.0,0.0,0,600542424201224443
0.9,0.5,1.0,0.0,1,5623372792531012767
0.9,0.5,1.0,0.0,2,3022519087243261470
0.9,0.1,1.0,0.0,9,2589334496817132374
0.9,0.5,1.0,0.0,3,318392819157777967
0.9,0.5,1.0,0.0,4,2429178160433652212
0.9,0.5,1.0,0.0,5,1171170041640457354
0.9,0.3,1.0,0.0,0,2076657776940998653
0.9,0.5,1.0,0.0,6,8269892339189356097
0.9,0.3,1.0,0.0,1,1405933066058351007
0.9,0.5,1.0,0.0,7,7518359695077015908
0.9,0.3,1.0,0.0,2,7115037806001397062
0.9,0.5,1.0,0.0,8,935412301883837356
0.9,0.3,1.0,0.0,3,4815495416245128042
0.9,0.5,1.0,0.0,9,2489698569124593177
0.9,0.3,1.0,0.0,4,5807897593120573997
0.9,0.3,1.0,0.0,5,7040721521649961143
0.9,0.3,1.0,0.0,6,4726364813511427288
0.1,0.3,1.0,0.0,0,1355048416132111769
0.1,0.3,1.0,0.0,1,6239137593710133733
0.1,0.3,1.0,0.0,2,2160421881456636577
