p_aa,p_ab,p_bb,graph,opinion_seed
1.0,0.01,1.0,0,5965890000162598940
1.0,0.01,1.0,1,4386151227221941738
1.0,0.01,1.0,2,1989877743665859662
1.0,0.01,1.0,3,1000945834159924939
1.0,0.01,1.0,4,5269108980858591800
1.0,0.1,1.0,0,1492324541856613070
1.0,0.1,1.0,1,1872682866582072576
1.0,0.1,1.0,2,1975535975063797500
1.0,0.1,1.0,3,4033366270636933023
1.0,0.1,1.0,4,8913651733274376160
0.5,0.01,0.5,0,7902808754168322742
0.5,0.01,0.5,1,1186020640206083
0.5,0.01,0.5,2,5799830452279296183
0.5,0.01,0.5,3,740715977189611092
0.5,0.01,0.5,4,2431043409545640067
