c,mu,delta,gamma,opinion_set,sim_seed
0.1,0.3,0.5,0.1,4,494689526594164323
0.1,0.5,0.5,0.1,1,4424066121330269594
0.2,0.1,0.5,0.1,5,2835589158923965922
0.2,0.5,0.5,0.1,6,884335343066726040
0.1,0.1,0.5,0.1,0,7434132160702973187
0.3,0.1,0.5,0.1,3,6925287157242671471
0.1,0.5,0.5,0.1,8,4427562565970573373
0.2,0.3,0.5,0.1,9,3486473697679289299
0.2,0.3,0.5,0.1,2,5033087799844489638
0.1,0.1,0.5,0.1,7,6337135535086278771
0.1,0.5,0.5,0.1,9,2739507772661128640
0.2,0.5,0.5,0.1,7,8282537211274600489
0.1,0.5,0.5,0.1,2,8412377038815939914
0.2,0.3,0.5,0.1,3,1722910519669150025
0.2,0.5,0.5,0.1,0,5040795805515205704
0.2,0.5,0.5,0.1,8,970218524412096814
0.1,0.5,0.5,0.1,3,8384726372925747746
0.2,0.5,0.5,0.1,9,5984263096943686449
0.2,0.5,0.5,0.1,1,1774674062213417812
0.2,0.1,0.5,0.1,0,4416053657612797691
0.3,0.1,0.5,0.1,0,5138904933792364595
0.1,0.3,0.5,0.1,5,1005517833841155043
0.1,0.5,0.5,0.1,4,4273604283905309019
0.2,0.5,0.5,0.1,2,5989401815483127112
0.1,0.5,0.5,0.1,5,4039556933257920123
0.2,0.5,0.5,0.1,3,7396325489384573725
0.1,0.3,0.5,0.1,6,6913971809788001080
0.1,0.5,0.5,0.1,6,753987366983741998
0.2,0.3,0.5,0.1,4,7596474169145215416
0.2,0.3,0.5,0.1,5,3114659719503614794
0.3,0.1,0.5,0.1,4,7225688335749040245
0.1,0.5,0.5,0.1,7,4162919174539553562
0.2,0.3,0.5,0.1,6,43265196767984498
0.3,0.3,0.5,0.1,0,6335188103956852271
0.3,0.3,0.5,0.1,1,1953733387374160041
0.3,0.3,0.5,0.1,2,4586022732793275566
0.3,0.3,0.5,0.1,3,8821771361601160077
0.2,0.5,0.5,0.1,4,4685683697347792347
0.3,0.1,0.5,0.1,1,1964868414928634682
0.3,0.3,0.5,0.1,4,2505206553281625697
0.3,0.1,0.5,0.1,5,7245338641724713719
0.2,0.5,0.5,0.1,5,5179648599656064869
0.3,0.3,0.5,0.1,5,8666711103854045475
0.3,0.3,0.5,0.1,7,4195754479462462236
0.3,0.3,0.5,0.1,6,7132575409295419123
0.3,0.1,0.5,0.1,2,5540915121696929073
0.3,0.3,0.5,0.1,8,5097758578024513044
0.3,0.5,0.5,0.1,4,3829999725810127961
0.2,0.1,0.5,0.1,6,282217772329254883
0.3,0.3,0.5,0.1,9,7394458588160800865
0.3,0.5,0.5,0.1,5,7633072253480484661
0.4,0.1,0.5,0.1,1,5752451382368099935
0.3,0.5,0.5,0.1,0,6099226101371664939
0.3,0.5,0.5,0.1,6,52984492877631133
0.3,0.5,0.5,0.1,1,7812369709075742762
0.3,0.1,0.5,0.1,6,2900422942710145519
0.3,0.5,0.5,0.1,7,8311591314554880184
0.3,0.5,0.5,0.1,2,7971889386828233294
0.1,0.3,0.5,0.1,7,9050848386265717030
0.3,0.5,0.5,0.1,8,6362401589864084067
0.3,0.5,0.5,0.1,3,6096398935136146931
0.4,0.1,0.5,0.1,2,4440042843313909838
0.4,0.1,0.5,0.1,8,5481942452771729578
0.3,0.5,0.5,0.1,9,2815105305503175201
0.1,0.3,0.5,0.1,8,7803351447162007233
0.4,0.1,0.5,0.1,0,6766989776564166612
0.4,0.1,0.5,0.1,3,1278242125280191009
0.1,0.3,0.5,0.1,9,9079949905456562953
0.4,0.1,0.5,0.1,9,9120943579035162698
0.4,0.3,0.5,0.1,5,2305118507877581880
0.4,0.3,0.5,0.1,0,6669045283607679841
0.4,0.1,0.5,0.1,4,5197205881606502956
0.1,0.5,0.5,0.1,0,6378058313558239905
0.4,0.3,0.5,0.1,6,6280475879300296077
0.4,0.3,0.5,0.1,7,1824648472414416473
0.2,0.3,0.5,0.1,7,1326141514239316791
0.4,0.3,0.5,0.1,8,5663741327639984902
0.4,0.3,0.5,0.1,1,1147883072605947495
0.4,0.1,0.5,0.1,5,7586133808118677891
0.4,0.3,0.5,0.1,2,2893622176412817443
0.2,0.3,0.5,0.1,8,7209217266799915051
0.3,0.1,0.5,0.1,7,8606259572828632170
0.4,0.3,0.5,0.1,3,274904312763095754
0.4,0.3,0.5,0.1,9,8120705847035585712
0.4,0.5,0.5,0.1,2,4464726619772057573
0.4,0.3,0.5,0.1,4,2127271676112416524
0.4,0.5,0.5,0.1,3,5850287746217066112
0.1,0.1,0.5,0.1,1,1288473326015763101
0.4,0.5,0.5,0.1,0,4532514763837995321
0.4,0.1,0.5,0.1,6,6535679040452657630
0.4,0.5,0.5,0.1,4,2162706363389393931
0.4,0.5,0.5,0.1,9,3237270753200125707
0.4,0.5,0.5,0.1,1,3439370920034428045
0.4,0.5,0.5,0.1,5,5626766218017059308
0.4,0.5,0.5,0.1,6,2737604974142101609
0.5,0.1,0.5,0.1,0,7462009491885929147
0.5,0.1,0.5,0.1,6,3272745994951729444
0.4,0.5,0.5,0.1,7,7523229043801525122
0.5,0.3,0.5,0.1,3,5070053366133261852
0.4,0.1,0.5,0.1,7,2445498223894707096
0.5,0.3,0.5,0.1,4,2995409387170678034
0.4,0.5,0.5,0.1,8,8827623372401904373
0.5,0.1,0.5,0.1,7,3735232121254505013
0.5,0.3,0.5,0.1,5,4028539056612788543
0.5,0.5,0.5,0.1,0,2399339452464937712
0.5,0.1,0.5,0.1,1,6257728864741193526
0.5,0.5,0.5,0.1,1,6372829333555359700
0.5,0.3,0.5,0.1,6,1949196333425889138
0.5,0.1,0.5,0.1,8,377455637349853083
0.5,0.5,0.5,0.1,2,5163463360464993796
0.5,0.3,0.5,0.1,7,4136271110369293229
0.5,0.5,0.5,0.1,7,767531099664216934
0.5,0.5,0.5,0.1,3,1945590251779619918
0.5,0.3,0.5,0.1,8,3022061236177615708
0.5,0.5,0.5,0.1,8,4545072839079705722
0.5,0.5,0.5,0.1,4,9101492219554364893
0.5,0.1,0.5,0.1,2,7378417585937875985
0.5,0.3,0.5,0.1,9,8741524364442538578
0.5,0.5,0.5,0.1,9,1268437971735855296
0.5,0.5,0.5,0.1,5,5061324897556272426
0.6,0.1,0.5,0.1,0,434232851112611716
0.6,0.1,0.5,0.1,4,6898286839920582892
0.5,0.5,0.5,0.1,6,6233275402770669406
0.5,0.1,0.5,0.1,9,8876530168093607713
0.6,0.3,0.5,0.1,1,6675783280561210125
0.5,0.1,0.5,0.1,3,6656110434570202366
0.6,0.3,0.5,0.1,2,5534406729139361100
0.6,0.1,0.5,0.1,5,2358019699376312580
0.6,0.1,0.5,0.1,1,5763534689139837563
0.5,0.3,0.5,0.1,0,8731414372237256041
0.6,0.3,0.5,0.1,3,341058256253966276
0.5,0.3,0.5,0.1,1,1333404344069221706
0.6,0.3,0.5,0.1,4,8785016540068216019
0.6,0.1,0.5,0.1,2,7252666325872929015
0.6,0.1,0.5,0.1,6,448366747390800361
0.5,0.1,0.5,0.1,4,5345391294354685288
0.6,0.3,0.5,0.1,5,87054218369771867
0.5,0.3,0.5,0.1,2,6309765872235749844
0.6,0.3,0.5,0.1,6,2408510223457391132
0.2,0.1,0.5,0.1,7,5614451403814840721
0.6,0.3,0.5,0.1,8,6543747899183591491
0.6,0.3,0.5,0.1,7,5486229644150900314
0.6,0.1,0.5,0.1,3,1603057347337882383
0.6,0.1,0.5,0.1,7,7243957573443685398
0.6,0.3,0.5,0.1,9,6989625925612002881
0.6,0.5,0.5,0.1,5,6178370226798192794
0.6,0.5,0.5,0.1,0,2174188329684787539
0.5,0.1,0.5,0.1,5,925059308138421318
0.6,0.5,0.5,0.1,6,7777294798571134825
0.6,0.5,0.5,0.1,1,972433285345437811
0.6,0.5,0.5,0.1,7,6693546644608120496
0.6,0.1,0.5,0.1,8,7290126333291777259
0.7,0.1,0.5,0.1,2,6848948871843479340
0.6,0.5,0.5,0.1,2,236156911466981052
0.6,0.5,0.5,0.1,8,4708485828177287344
0.6,0.5,0.5,0.1,3,8510081659457013504
0.7,0.1,0.5,0.1,9,6575050136721476440
0.6,0.5,0.5,0.1,9,8891510128791653883
0.6,0.5,0.5,0.1,4,6991620226935957014
0.7,0.1,0.5,0.1,3,777238606119951195
0.6,0.1,0.5,0.1,9,3036479138962795044
0.7,0.1,0.5,0.1,0,2197054247662936953
0.7,0.3,0.5,0.1,6,5590858026513394303
0.7,0.3,0.5,0.1,0,58516388657097575
0.7,0.3,0.5,0.1,7,1476273725124258005
0.7,0.3,0.5,0.1,1,3534818206750725674
0.7,0.1,0.5,0.1,4,8674007063848824478
0.7,0.3,0.5,0.1,8,1623612386423508689
0.7,0.1,0.5,0.1,1,586372391271170641
0.6,0.3,0.5,0.1,0,996890555242168092
0.7,0.3,0.5,0.1,2,4521634947425811541
0.7,0.3,0.5,0.1,9,3719068713814732259
0.7,0.3,0.5,0.1,3,1188499657010144627
0.7,0.5,0.5,0.1,3,3066524558573087792
0.7,0.5,0.5,0.1,0,17438452067255550
0.7,0.1,0.5,0.1,5,8616549920251278381
0.7,0.3,0.5,0.1,4,7112051551683601650
0.7,0.5,0.5,0.1,4,186508430576893392
0.8,0.1,0.5,0.1,0,8269653044507571996
0.7,0.5,0.5,0.1,1,58611789856030355
0.7,0.3,0.5,0.1,5,429953451722627739
0.7,0.5,0.5,0.1,5,7778031170851006844
0.7,0.5,0.5,0.1,2,3259414348709640740
0.8,0.1,0.5,0.1,7,2916277223823792100
0.7,0.5,0.5,0.1,6,1846900424126740068
0.8,0.3,0.5,0.1,4,8970433267194776844
0.7,0.1,0.5,0.1,6,2079757644435793396
0.7,0.5,0.5,0.1,7,4671289220726689108
0.8,0.1,0.5,0.1,1,6935650371643096996
0.8,0.3,0.5,0.1,5,4933867325503889095
0.7,0.5,0.5,0.1,8,6800813757081202673
0.8,0.1,0.5,0.1,8,1943074037757031795
0.8,0.3,0.5,0.1,6,9091173988209393084
0.7,0.5,0.5,0.1,9,6767810390763505979
0.7,0.1,0.5,0.1,7,4146848539942365880
0.8,0.1,0.5,0.1,2,2605078167188220238
0.8,0.5,0.5,0.1,1,2596659215400650562
0.8,0.3,0.5,0.1,7,776842359472762004
0.8,0.5,0.5,0.1,2,5888366409537917290
0.8,0.1,0.5,0.1,9,5742706944214471837
0.8,0.3,0.5,0.1,8,2544748562378116870
0.7,0.1,0.5,0.1,8,928509844931554016
0.8,0.5,0.5,0.1,3,9215456123589831822
0.8,0.1,0.5,0.1,3,1112067905481815431
0.8,0.3,0.5,0.1,9,7950444085284652081
0.8,0.5,0.5,0.1,4,3596105196729356326
0.8,0.5,0.5,0.1,0,3828343272521260429
0.8,0.5,0.5,0.1,5,5279458383553262429
0.8,0.3,0.5,0.1,0,1260506983295814223
0.8,0.5,0.5,0.1,8,3770584382952600854
0.9,0.1,0.5,0.1,5,4618708777312263020
0.8,0.5,0.5,0.1,6,5761199498441055789
0.8,0.3,0.5,0.1,1,3843651490430766369
0.8,0.1,0.5,0.1,4,7638596488737570500
0.8,0.5,0.5,0.1,9,3304040155653531469
0.8,0.5,0.5,0.1,7,3132538031642308417
0.8,0.3,0.5,0.1,2,2136713420320075722
0.9,0.1,0.5,0.1,0,2417166479492872865
0.9,0.3,0.5,0.1,2,4927142138275792769
0.8,0.3,0.5,0.1,3,1057303142805986964
0.9,0.1,0.5,0.1,6,8712761421730350201
0.9,0.3,0.5,0.1,3,6912550653441208084
0.8,0.1,0.5,0.1,5,4198059217454214817
0.9,0.3,0.5,0.1,9,5913191518896391001
0.9,0.3,0.5,0.1,4,4519223127472100785
0.9,0.1,0.5,0.1,1,917071172715809896
0.9,0.5,0.5,0.1,0,5659715845168370872
0.9,0.3,0.5,0.1,5,5342615589318936260
0.9,0.1,0.5,0.1,7,9094870767497040489
0.9,0.5,0.5,0.1,1,8468870542082489670
0.8,0.1,0.5,0.1,6,7140899920022254296
0.9,0.3,0.5,0.1,6,4201837638162820597
0.9,0.5,0.5,0.1,2,2390621585206365259
0.9,0.1,0.5,0.1,2,3229966948548987211
0.9,0.3,0.5,0.1,7,8632613724570508368
0.9,0.5,0.5,0.1,3,3933080335944077731
0.9,0.1,0.5,0.1,8,3809976383128336263
0.9,0.5,0.5,0.1,4,7648168896924432953
0.9,0.3,0.5,0.1,8,210977895892741613
0.9,0.5,0.5,0.1,6,1738838548711800172
0.9,0.5,0.5,0.1,5,8472371256071031597
0.9,0.5,0.5,0.1,7,7714206372503501213
0.9,0.1,0.5,0.1,3,8649330840750176317
0.9,0.5,0.5,0.1,8,4733316067030512084
0.9,0.1,0.5,0.1,9,6683879595573576504
0.9,0.5,0.5,0.1,9,5968575732753824285
0.1,0.1,0.5,0.1,8,2837547269510059795
0.9,0.1,0.5,0.1,4,5372284454919182152
0.9,0.3,0.5,0.1,0,5823865811234805665
0.9,0.3,0.5,0.1,1,2863058745429271116
0.1,0.1,0.5,0.1,2,5038160517275806701
0.3,0.1,0.5,0.1,8,1196344344190694122
0.3,0.1,0.5,0.1,9,1857040845800784355
0.1,0.1,0.5,0.1,9,4439591564910032658
0.2,0.1,0.5,0.1,1,6326534201781641995
0.2,0.1,0.5,0.1,2,4057980446219306268
0.2,0.1,0.5,0.1,3,1944775601977306334
0.1,0.1,0.5,0.1,3,4517235943901177520
0.1,0.3,0.5,0.1,0,6197472780336244559
0.1,0.3,0.5,0.1,1,3524582610269182351
0.1,0.3,0.5,0.1,2,5561711970296794813
0.2,0.1,0.5,0.1,4,7161795908036528820
0.1,0.3,0.5,0.1,3,9048336889985539314
0.1,0.1,0.5,0.1,4,6088536702462690657
0.1,0.1,0.5,0.1,5,1581271213267904129
0.2,0.1,0.5,0.1,8,3411032611194823628
0.1,0.1,0.5,0.1,6,7825714855919240233
0.2,0.1,0.5,0.1,9,4423449388900478513
0.2,0.3,0.5,0.1,0,91172492749859790
0.2,0.3,0.5,0.1,1,7153321699577261749
0.1,0.3,1.0,0.0,4,5451160630023951308
0.1,0.5,1.0,0.0,1,5660087779430622183
0.2,0.1,1.0,0.0,5,4661838648890755970
0.2,0.5,1.0,0.0,6,881637621815439348
0.1,0.1,1.0,0.0,0,4974288132791186065
0.3,0.1,1.0,0.0,3,6863753640198404943
0.1,0.5,1.0,0.0,8,3536408849494033871
0.2,0.3,1.0,0.0,9,1862192603729526082
0.2,0.3,1.0,0.0,2,7754709008459780288
0.1,0.1,1.0,0.0,7,6681610630352835351
0.2,0.5,1.0,0.0,7,8197915029424059213
0.1,0.5,1.0,0.0,2,8649781574778164105
0.1,0.3,1.0,0.0,5,1105898412568306842
0.2,0.5,1.0,0.0,0,6053091502222296236
0.2,0.3,1.0,0.0,3,5882081915710264389
0.1,0.5,1.0,0.0,3,8673368583170515888
0.1,0.5,1.0,0.0,9,2979706838010106847
0.1,0.5,1.0,0.0,4,3435425222580135869
0.2,0.5,1.0,0.0,1,146262121974806967
0.1,0.3,1.0,0.0,6,7159418918478787413
0.2,0.5,1.0,0.0,8,7607208997285071069
0.2,0.1,1.0,0.0,6,3820829751578789444
0.2,0.3,1.0,0.0,4,5656099111792712482
0.3,0.1,1.0,0.0,4,851181068697288589
0.2,0.1,1.0,0.0,0,4523573390080093483
0.2,0.5,1.0,0.0,9,1465088527317921346
0.2,0.5,1.0,0.0,2,7126430161944279620
0.1,0.5,1.0,0.0,5,1549999236460535913
0.2,0.3,1.0,0.0,5,9040489673246800082
0.1,0.3,1.0,0.0,7,3188626776355284044
0.1,0.1,1.0,0.0,8,1559120731725843638
0.3,0.1,1.0,0.0,0,2196690656005926588
0.2,0.3,1.0,0.0,6,8985664590990024750
0.1,0.5,1.0,0.0,6,2429954975733664289
0.2,0.5,1.0,0.0,3,1995470458868537477
0.1,0.3,1.0,0.0,8,7731571045551359396
0.1,0.1,1.0,0.0,1,1460755137396403991
0.3,0.1,1.0,0.0,5,3781369105435431272
0.2,0.1,1.0,0.0,7,6553545214791090950
0.1,0.5,1.0,0.0,7,5546544423997135823
0.1,0.3,1.0,0.0,9,8391340305474252904
0.3,0.3,1.0,0.0,0,1202256799964303829
0.2,0.3,1.0,0.0,7,4263202205197724418
0.2,0.1,1.0,0.0,1,4603491707376481825
0.2,0.5,1.0,0.0,4,4560319462140373653
0.3,0.1,1.0,0.0,1,3869033939571411112
0.2,0.3,1.0,0.0,8,5542136331907938241
0.3,0.3,1.0,0.0,1,3283296885515818707
0.1,0.1,1.0,0.0,2,274132536614670678
0.3,0.1,1.0,0.0,6,155859869990126481
0.1,0.5,1.0,0.0,0,8429160836623546906
0.3,0.3,1.0,0.0,2,2124947949390845635
0.3,0.3,1.0,0.0,7,842026534692290106
0.1,0.1,1.0,0.0,9,7411844714679268543
0.2,0.5,1.0,0.0,5,1316109219548919197
0.3,0.3,1.0,0.0,3,8039914699524769658
0.3,0.3,1.0,0.0,8,5478125131180055481
0.2,0.1,1.0,0.0,8,3545192716580719925
0.3,0.5,1.0,0.0,4,516813625147007121
0.4,0.1,1.0,0.0,1,7029225075713057647
0.3,0.1,1.0,0.0,2,2010446195333816680
0.2,0.1,1.0,0.0,2,1115736497161412108
0.3,0.5,1.0,0.0,5,1032304397653557549
0.3,0.3,1.0,0.0,9,4386816737331017106
0.3,0.3,1.0,0.0,4,8831045424141652415
0.3,0.5,1.0,0.0,6,1191869492224402250
0.1,0.1,1.0,0.0,3,6974648503602460593
0.3,0.5,1.0,0.0,0,8726966377877670224
0.3,0.3,1.0,0.0,5,5951268656363958056
0.4,0.1,1.0,0.0,8,89500894036652355
0.3,0.5,1.0,0.0,7,180536427956036365
0.4,0.1,1.0,0.0,2,5418677023054836096
0.3,0.5,1.0,0.0,1,8159968094211657541
0.3,0.3,1.0,0.0,6,8459418410393378721
0.3,0.5,1.0,0.0,8,7273561325958075484
0.3,0.5,1.0,0.0,2,7520122175189779935
0.2,0.1,1.0,0.0,9,419492337416694784
0.4,0.3,1.0,0.0,5,3704368631991741863
0.3,0.5,1.0,0.0,3,4727026739266216643
0.3,0.5,1.0,0.0,9,3367780702854427374
0.4,0.1,1.0,0.0,3,8618446623329116873
0.1,0.3,1.0,0.0,0,8724358964781409673
0.4,0.1,1.0,0.0,9,4235106142968262275
0.4,0.3,1.0,0.0,6,5368250375366824220
0.4,0.1,1.0,0.0,0,94158844443633427
0.3,0.1,1.0,0.0,7,8459965299062298958
0.4,0.3,1.0,0.0,7,8597170578506452697
0.4,0.5,1.0,0.0,2,2419468848677211256
0.4,0.5,1.0,0.0,3,2633035598792105725
0.4,0.3,1.0,0.0,0,7577135873424970012
0.4,0.5,1.0,0.0,4,913779339020763697
0.4,0.3,1.0,0.0,8,4999074471683992559
0.1,0.3,1.0,0.0,1,7810661569546795565
0.4,0.5,1.0,0.0,5,7878838502041527727
0.4,0.5,1.0,0.0,9,4624445680573670334
0.4,0.3,1.0,0.0,1,8027481748381621091
0.4,0.3,1.0,0.0,9,1938195759331692485
0.3,0.1,1.0,0.0,8,3008908037751926922
0.4,0.5,1.0,0.0,6,4315146652494370040
0.5,0.1,1.0,0.0,0,4240748244788256878
0.2,0.3,1.0,0.0,0,2969060841963623463
0.4,0.3,1.0,0.0,2,4537368473736784800
0.4,0.5,1.0,0.0,0,8279457157720026848
0.4,0.5,1.0,0.0,7,4243214747952450666
0.1,0.1,1.0,0.0,4,3875309937292199920
0.1,0.3,1.0,0.0,2,2873425680601756763
0.4,0.3,1.0,0.0,3,8905340723349875552
0.4,0.5,1.0,0.0,8,9044823834435146996
0.4,0.5,1.0,0.0,1,3046001171453743300
0.4,0.3,1.0,0.0,4,7882898942004530840
0.5,0.1,1.0,0.0,1,9182652874097123937
0.2,0.3,1.0,0.0,1,1215163165914091577
0.5,0.1,1.0,0.0,6,9057694805081207893
0.5,0.3,1.0,0.0,3,4613779875609700169
0.1,0.3,1.0,0.0,3,4539837502720236104
0.5,0.5,1.0,0.0,0,7789033128342228122
0.5,0.3,1.0,0.0,4,6152035116004325671
0.2,0.1,1.0,0.0,3,4561757677289472555
0.5,0.5,1.0,0.0,7,4574977551332353946
0.5,0.5,1.0,0.0,1,399813240326753129
0.4,0.1,1.0,0.0,4,912684141604010539
0.5,0.1,1.0,0.0,7,6434511820109554035
0.5,0.1,1.0,0.0,2,2981848074639494933
0.5,0.3,1.0,0.0,5,6732056128841009221
0.5,0.5,1.0,0.0,8,1541564596265512462
0.3,0.1,1.0,0.0,9,1275452123196543677
0.5,0.3,1.0,0.0,6,14864199384907662
0.5,0.5,1.0,0.0,2,687639356081926432
0.5,0.5,1.0,0.0,9,6546952552607254829
0.5,0.5,1.0,0.0,3,1527210700373036477
0.5,0.3,1.0,0.0,7,7821989867908354902
0.6,0.1,1.0,0.0,0,8709154635904876812
0.5,0.1,1.0,0.0,8,7225434989435782176
0.6,0.1,1.0,0.0,4,768564948457773842
0.5,0.5,1.0,0.0,4,3496804862812796353
0.4,0.1,1.0,0.0,5,5158367776952956062
0.5,0.1,1.0,0.0,3,4777889430329965363
0.5,0.3,1.0,0.0,8,3574763741890361993
0.5,0.5,1.0,0.0,5,7383184690244089449
0.1,0.1,1.0,0.0,5,3238214234995855603
0.5,0.3,1.0,0.0,9,5826201187612376110
0.5,0.5,1.0,0.0,6,2399941779191332142
0.6,0.1,1.0,0.0,1,82461227738149224
0.6,0.3,1.0,0.0,1,4779261082645959094
0.5,0.1,1.0,0.0,9,4184192845983594398
0.6,0.1,1.0,0.0,5,8619489626744303758
0.6,0.3,1.0,0.0,8,1428976381290210739
0.6,0.5,1.0,0.0,5,7730838194752896802
0.4,0.1,1.0,0.0,6,8609948451736569875
0.6,0.5,1.0,0.0,6,6114348765454086462
0.6,0.3,1.0,0.0,2,2346424473349182939
0.5,0.1,1.0,0.0,4,1482227869747587413
0.6,0.3,1.0,0.0,9,2343247751554034370
0.2,0.1,1.0,0.0,4,7336825298751677262
0.6,0.5,1.0,0.0,7,8892763490557786232
0.6,0.3,1.0,0.0,3,3528142255339830325
0.6,0.1,1.0,0.0,6,4575447236074648034
0.6,0.5,1.0,0.0,0,6371712549493249371
0.6,0.1,1.0,0.0,2,1559525169942768059
0.5,0.3,1.0,0.0,0,143922842574949195
0.6,0.5,1.0,0.0,8,5385129372408093818
0.6,0.3,1.0,0.0,4,8981485639538025985
0.6,0.5,1.0,0.0,1,7920145495461921751
0.4,0.1,1.0,0.0,7,6254809386293663716
0.5,0.1,1.0,0.0,5,1615432398916418839
0.6,0.5,1.0,0.0,9,1973197895252686843
0.6,0.3,1.0,0.0,5,5798074377301534031
0.5,0.3,1.0,0.0,1,8011537675220812211
0.6,0.5,1.0,0.0,2,133676877243033817
0.7,0.1,1.0,0.0,0,2198696712458806468
0.6,0.1,1.0,0.0,7,3162878613487102229
0.6,0.3,1.0,0.0,6,8940658137629875860
0.6,0.1,1.0,0.0,3,5674198862842380463
0.6,0.5,1.0,0.0,3,7375586331794433081
0.5,0.3,1.0,0.0,2,76980881896859027
0.6,0.5,1.0,0.0,4,759218146101688018
0.6,0.3,1.0,0.0,7,1729095534838350787
0.7,0.1,1.0,0.0,2,1789825270521884642
0.7,0.1,1.0,0.0,9,7764993110055050234
0.7,0.3,1.0,0.0,6,1238163813463118577
0.7,0.5,1.0,0.0,3,2790959690303744241
0.8,0.1,1.0,0.0,0,1039885030319997187
0.8,0.1,1.0,0.0,7,8996489155813334583
0.7,0.1,1.0,0.0,1,7826897648867968160
0.7,0.3,1.0,0.0,7,3489940899097814638
0.6,0.1,1.0,0.0,8,1367071291086221201
0.7,0.5,1.0,0.0,4,303217997137098352
0.8,0.3,1.0,0.0,4,1611966860296177764
0.7,0.1,1.0,0.0,3,3388810791006348242
0.7,0.3,1.0,0.0,8,3546922387788168803
0.7,0.5,1.0,0.0,5,607516738426196210
0.8,0.3,1.0,0.0,5,307844385902518881
0.7,0.3,1.0,0.0,0,6295452880750749850
0.1,0.1,1.0,0.0,6,2596860611593909114
0.7,0.3,1.0,0.0,9,869951211170976618
0.7,0.5,1.0,0.0,6,5758662222105990550
0.8,0.1,1.0,0.0,8,3561786998044028292
0.7,0.3,1.0,0.0,1,788610370495282826
0.8,0.1,1.0,0.0,1,8836574486654031824
0.8,0.3,1.0,0.0,6,5464020750185266481
0.8,0.5,1.0,0.0,1,2483523388593825417
0.6,0.1,1.0,0.0,9,4687925094155046532
0.7,0.5,1.0,0.0,0,475211718226299721
0.7,0.3,1.0,0.0,2,945339733287224096
0.7,0.1,1.0,0.0,4,719952499885722301
0.8,0.3,1.0,0.0,7,5412379603745341687
0.7,0.5,1.0,0.0,7,426194456760512763
0.8,0.5,1.0,0.0,2,7688926041268464246
0.7,0.5,1.0,0.0,1,6203081552663650391
0.7,0.3,1.0,0.0,3,1672966283274573592
0.8,0.1,1.0,0.0,9,8885500490365262616
0.7,0.5,1.0,0.0,8,6069340902220460266
0.8,0.3,1.0,0.0,8,4729731360332890514
0.8,0.5,1.0,0.0,3,4467737762139741060
0.7,0.5,1.0,0.0,2,4250157809820419717
0.8,0.1,1.0,0.0,2,7700960520945245265
0.7,0.3,1.0,0.0,4,3575903089689378307
0.8,0.3,1.0,0.0,9,7487630357325065440
0.7,0.5,1.0,0.0,9,3448003019556387210
0.8,0.5,1.0,0.0,4,915956597780898637
0.6,0.3,1.0,0.0,0,6711535372403773431
0.8,0.5,1.0,0.0,8,4425228412388118312
0.7,0.1,1.0,0.0,5,523782890276262534
0.9,0.1,1.0,0.0,5,457366538697720519
0.8,0.5,1.0,0.0,5,6811231423657739984
0.8,0.5,1.0,0.0,9,3741605123199398365
0.7,0.3,1.0,0.0,5,5982661551156279790
0.8,0.5,1.0,0.0,0,8076039857048137481
0.9,0.3,1.0,0.0,2,601008466505960882
0.8,0.3,1.0,0.0,0,5830902854119505895
0.8,0.5,1.0,0.0,6,1825368139879384962
0.8,0.1,1.0,0.0,3,6056435018845429316
0.9,0.3,1.0,0.0,9,4109099072114854204
0.9,0.5,1.0,0.0,6,2885753371344867514
0.9,0.3,1.0,0.0,3,4593831526124366032
0.9,0.1,1.0,0.0,0,1848759321054587366
0.8,0.3,1.0,0.0,1,6510370218532357236
0.8,0.5,1.0,0.0,7,1224081836266785628
0.9,0.5,1.0,0.0,7,2715886449115317864
0.7,0.1,1.0,0.0,6,1502060231668719128
0.9,0.5,1.0,0.0,0,6707460527362592092
0.9,0.3,1.0,0.0,4,8174251053144566739
0.9,0.1,1.0,0.0,6,3436438665066598633
0.9,0.5,1.0,0.0,8,83306714731741307
0.8,0.3,1.0,0.0,2,5302837936488719980
0.9,0.5,1.0,0.0,1,7209233351902622578
0.9,0.3,1.0,0.0,5,3147684444208928600
0.8,0.1,1.0,0.0,4,7864911932054116267
0.8,0.3,1.0,0.0,3,7065888803102569024
0.9,0.5,1.0,0.0,9,1196804217618555049
0.9,0.1,1.0,0.0,1,8099759169095896094
0.9,0.5,1.0,0.0,2,7732148095238737041
0.9,0.3,1.0,0.0,6,4916564648320357470
0.7,0.1,1.0,0.0,7,1786405069604040243
0.9,0.5,1.0,0.0,3,5952035535662137704
0.9,0.1,1.0,0.0,7,4618042882015708806
0.9,0.3,1.0,0.0,7,4193764278550036937
0.9,0.5,1.0,0.0,4,441171735677375803
0.9,0.1,1.0,0.0,2,1487216285241234608
0.8,0.1,1.0,0.0,5,8540664782786461144
0.9,0.3,1.0,0.0,8,6582544482158121524
0.9,0.5,1.0,0.0,5,3816496569423655255
0.9,0.1,1.0,0.0,8,7390739960492770267
0.7,0.1,1.0,0.0,8,5306241637756090546
0.9,0.1,1.0,0.0,3,8186563332983272585
0.8,0.1,1.0,0.0,6,3388840089000980145
0.9,0.1,1.0,0.0,9,8863783862389607625
0.9,0.1,1.0,0.0,4,4150379921886687984
0.9,0.3,1.0,0.0,0,5991175152043920732
0.9,0.3,1.0,0.0,1,8657682233550696883
