c,mu,delta,gamma,opinion_set,sim_seed
0.1,0.1,0.5,0.1,0,7667266977975004149
0.1,0.3,0.5,0.1,4,4103755821924011688
0.1,0.5,0.5,0.1,1,451532150781112680
0.2,0.1,0.5,0.1,5,7896771139743796130
0.1,0.1,0.5,0.1,7,1130033063531549970
0.2,0.3,0.5,0.1,2,6385220951201098462
0.2,0.5,0.5,0.1,6,723960069364286725
0.3,0.1,0.5,0.1,3,910434657861136524
0.1,0.5,0.5,0.1,8,6718737922837227432
0.2,0.3,0.5,0.1,9,5408488759412940176
0.2,0.5,0.5,0.1,7,2504678282209781114
0.2,0.5,0.5,0.1,0,7776291623982341680
0.3,0.1,0.5,0.1,4,3617036820748116975
0.2,0.3,0.5,0.1,3,3966550212324120198
0.2,0.1,0.5,0.1,6,1295707142887556100
0.1,0.5,0.5,0.1,2,6080177680244869385
0.2,0.3,0.5,0.1,4,5892461232467130761
0.3,0.1,0.5,0.1,5,7546986758104707487
0.3,0.1,0.5,0.1,6,3486551303141606807
0.3,0.1,0.5,0.1,7,3637397631233245555
0.1,0.5,0.5,0.1,3,8102058868442586858
0.3,0.1,0.5,0.1,8,4196771224166779209
0.2,0.5,0.5,0.1,8,9104425131464362194
0.3,0.1,0.5,0.1,9,6980293955809136211
0.3,0.3,0.5,0.1,0,639744799079762041
0.3,0.3,0.5,0.1,1,6210063589681422338
0.2,0.5,0.5,0.1,9,7712755437450489217
0.1,0.5,0.5,0.1,4,8051197734446587728
0.3,0.1,0.5,0.1,0,3859653738349464305
0.3,0.3,0.5,0.1,2,2339303939602437481
0.3,0.1,0.5,0.1,1,8040053749527738276
0.3,0.3,0.5,0.1,3,3127902849772276547
0.3,0.1,0.5,0.1,2,3829195863543273367
0.3,0.3,0.5,0.1,4,7688098819922900702
0.3,0.3,0.5,0.1,5,3365520112150597426
0.3,0.3,0.5,0.1,7,8808235782772094003
0.3,0.3,0.5,0.1,8,2046798272904724352
0.3,0.3,0.5,0.1,6,8427383599230744891
0.3,0.5,0.5,0.1,4,5400024731649855100
0.3,0.5,0.5,0.1,5,6058782171054097647
0.3,0.5,0.5,0.1,6,4243063467770959190
0.3,0.5,0.5,0.1,7,164224526691535498
0.3,0.5,0.5,0.1,8,8075351758094228444
0.3,0.5,0.5,0.1,9,3446976681506977312
0.4,0.1,0.5,0.1,0,6417599225689439727
0.4,0.1,0.5,0.1,1,7556312314591192699
0.4,0.1,0.5,0.1,2,1143782138596836178
0.4,0.1,0.5,0.1,3,1940407099418315309
0.4,0.1,0.5,0.1,4,5921240112776185803
0.4,0.1,0.5,0.1,5,8192158837525779253
0.4,0.1,0.5,0.1,6,1560104765942759363
0.4,0.1,0.5,0.1,7,2146725307898464937
0.4,0.1,0.5,0.1,8,2616115003389652521
0.4,0.1,0.5,0.1,9,1578669396334392969
0.4,0.3,0.5,0.1,0,5767122004568202430
0.4,0.3,0.5,0.1,1,2887887980152937766
0.4,0.3,0.5,0.1,2,7798257106366822149
0.4,0.3,0.5,0.1,3,5330309752028785175
0.3,0.3,0.5,0.1,9,4952672929049270439
0.3,0.5,0.5,0.1,0,4205445504909830408
0.3,0.5,0.5,0.1,1,2636289471519951419
0.3,0.5,0.5,0.1,2,91566480323171288
0.3,0.5,0.5,0.1,3,3197756184864068798
0.4,0.3,0.5,0.1,5,4845386665191047068
0.4,0.3,0.5,0.1,6,2809016520336809557
0.4,0.3,0.5,0.1,7,7454353464239604282
0.4,0.3,0.5,0.1,8,7245373947124665331
0.4,0.3,0.5,0.1,9,4104090560325140877
0.4,0.5,0.5,0.1,0,5727742308250325583
0.4,0.5,0.5,0.1,1,1998504693887932313
0.4,0.5,0.5,0.1,2,512599158367613223
0.4,0.5,0.5,0.1,3,38592378282906198
0.4,0.5,0.5,0.1,4,7831779365696697003
0.4,0.5,0.5,0.1,5,127293051181552391
0.4,0.5,0.5,0.1,6,924366442511048472
0.4,0.5,0.5,0.1,7,533125491689137069
0.4,0.5,0.5,0.1,8,1516863290502661874
0.4,0.5,0.5,0.1,9,9186395037912685969
0.5,0.1,0.5,0.1,0,7768345955545869139
0.5,0.1,0.5,0.1,1,3633061539061445018
0.5,0.1,0.5,0.1,2,2810570087728556429
0.5,0.1,0.5,0.1,3,1686064523008372277
0.5,0.1,0.5,0.1,4,2817370828534217633
0.5,0.1,0.5,0.1,5,9155062302490555663
0.5,0.1,0.5,0.1,6,2677738871345323802
0.5,0.1,0.5,0.1,7,5248786707592702057
0.5,0.1,0.5,0.1,8,7271433954680763603
0.5,0.1,0.5,0.1,9,4969150120547601268
0.5,0.3,0.5,0.1,0,1046637521596987946
0.5,0.3,0.5,0.1,1,5594455488368587872
0.5,0.3,0.5,0.1,2,437224061422803265
0.5,0.3,0.5,0.1,3,9183792930239195633
0.5,0.3,0.5,0.1,4,5829063548073825765
0.5,0.3,0.5,0.1,5,1241514008122432864
0.5,0.3,0.5,0.1,6,5341357125759963465
0.5,0.3,0.5,0.1,7,3413239422365451534
0.5,0.3,0.5,0.1,8,3190499947596628744
0.5,0.3,0.5,0.1,9,894765564036729534
0.5,0.5,0.5,0.1,0,3382803950850539067
0.5,0.5,0.5,0.1,1,5812859514714587468
0.5,0.5,0.5,0.1,2,6618649392982045947
0.5,0.5,0.5,0.1,3,7273705661338763973
0.5,0.5,0.5,0.1,4,1233690510620474409
0.5,0.5,0.5,0.1,5,1984203905449267740
0.5,0.5,0.5,0.1,6,8614427739496735566
0.5,0.5,0.5,0.1,7,2517385798728463478
0.5,0.5,0.5,0.1,8,7075434510126940239
0.5,0.5,0.5,0.1,9,2519380853518261939
0.6,0.1,0.5,0.1,0,405086987589314013
0.6,0.1,0.5,0.1,1,9013935561410146994
0.6,0.1,0.5,0.1,2,2812339098263771257
0.6,0.1,0.5,0.1,3,4362787631288051920
0.6,0.1,0.5,0.1,4,8493069353276408254
0.6,0.1,0.5,0.1,5,2678875492573071694
0.6,0.1,0.5,0.1,6,4182320794002777154
0.6,0.1,0.5,0.1,7,2302691632566115290
0.6,0.1,0.5,0.1,8,7800701934774733099
0.6,0.1,0.5,0.1,9,3741443173752172227
0.6,0.3,0.5,0.1,0,1462879474173283476
0.6,0.3,0.5,0.1,1,183046896715317841
0.6,0.3,0.5,0.1,2,2483864673928050091
0.6,0.3,0.5,0.1,3,3098110126795552375
0.6,0.3,0.5,0.1,4,2705598654695004682
0.6,0.3,0.5,0.1,5,4334161634558397717
0.6,0.3,0.5,0.1,6,8828740809571717178
0.6,0.3,0.5,0.1,7,5695395241232828648
0.6,0.3,0.5,0.1,8,3504680049696633551
0.6,0.3,0.5,0.1,9,5701895209359681048
0.6,0.5,0.5,0.1,0,2406225587879218219
0.6,0.5,0.5,0.1,1,5151077129896685198
0.6,0.5,0.5,0.1,2,8689010055275304511
0.6,0.5,0.5,0.1,3,8997132423653688910
0.6,0.5,0.5,0.1,4,3107877173544159942
0.6,0.5,0.5,0.1,5,5736753228748569240
0.6,0.5,0.5,0.1,6,1966918101044458682
0.6,0.5,0.5,0.1,7,2177543282176239584
0.6,0.5,0.5,0.1,8,3523140687589913032
0.6,0.5,0.5,0.1,9,8557010439293314960
0.7,0.1,0.5,0.1,0,3764903916151828017
0.7,0.1,0.5,0.1,1,1010237368277669689
0.7,0.1,0.5,0.1,2,1839226638998824198
0.7,0.1,0.5,0.1,3,657268080541089768
0.7,0.1,0.5,0.1,4,5609802123067764058
0.7,0.1,0.5,0.1,5,3532885677496203407
0.7,0.1,0.5,0.1,6,4437498401064115540
0.7,0.1,0.5,0.1,7,1603032942162371038
0.7,0.1,0.5,0.1,8,1777775478763781867
0.7,0.1,0.5,0.1,9,6854044787817954577
0.7,0.3,0.5,0.1,0,8405305292343152334
0.7,0.3,0.5,0.1,1,8629606864182435375
0.7,0.3,0.5,0.1,2,2748981442743813720
0.7,0.3,0.5,0.1,3,5165861996291759551
0.7,0.3,0.5,0.1,4,8323536338161126393
0.7,0.3,0.5,0.1,5,8112447270707660287
0.7,0.3,0.5,0.1,6,4089583934158006787
0.7,0.3,0.5,0.1,7,9090097331249781912
0.7,0.3,0.5,0.1,8,4839604870888309384
0.7,0.3,0.5,0.1,9,6650294678969864566
0.7,0.5,0.5,0.1,0,2855508873891091124
0.7,0.5,0.5,0.1,1,4952021250415973413
0.7,0.5,0.5,0.1,2,6566013115833080498
0.7,0.5,0.5,0.1,3,3773439824670833224
0.7,0.5,0.5,0.1,4,3593292560839745358
0.7,0.5,0.5,0.1,5,4255724209219346382
0.7,0.5,0.5,0.1,6,7935070062858008166
0.7,0.5,0.5,0.1,7,8680020488728988387
0.7,0.5,0.5,0.1,8,7360068346670043455
0.7,0.5,0.5,0.1,9,8330289855572326805
0.8,0.1,0.5,0.1,0,1744270377700227530
0.8,0.1,0.5,0.1,1,2580558385450476497
0.4,0.3,0.5,0.1,4,9155614635715714731
0.8,0.1,0.5,0.1,2,9206919537635158125
0.8,0.1,0.5,0.1,7,8987116761866431339
0.8,0.1,0.5,0.1,3,6679873960665462392
0.8,0.1,0.5,0.1,8,5080330251547109217
0.8,0.1,0.5,0.1,4,5919942320613736993
0.8,0.1,0.5,0.1,9,708099273190642940
0.8,0.1,0.5,0.1,5,3695031070477460384
0.8,0.3,0.5,0.1,0,172029102797424116
0.8,0.3,0.5,0.1,1,1665601421064926004
0.8,0.1,0.5,0.1,6,8682645610817933581
0.8,0.3,0.5,0.1,2,8493345347656670356
0.8,0.3,0.5,0.1,3,7026302026849265561
0.8,0.3,0.5,0.1,4,4014101505905651906
0.8,0.5,0.5,0.1,1,7808936406531545690
0.8,0.5,0.5,0.1,2,5182830471164210614
0.8,0.3,0.5,0.1,5,1733747329447163254
0.8,0.5,0.5,0.1,3,2906021094752629091
0.8,0.3,0.5,0.1,6,7131354316579427332
0.8,0.5,0.5,0.1,4,3431516703706340954
0.8,0.3,0.5,0.1,7,2268343652423626805
0.8,0.5,0.5,0.1,5,7214904086225313576
0.8,0.3,0.5,0.1,8,7499318498184698976
0.8,0.5,0.5,0.1,6,7504806889451766137
0.8,0.5,0.5,0.1,7,5321273371439811880
0.8,0.3,0.5,0.1,9,5136618294437433456
0.8,0.5,0.5,0.1,8,2210269729954240295
0.8,0.5,0.5,0.1,0,8041836248373473839
0.8,0.5,0.5,0.1,9,264888665625643025
0.9,0.1,0.5,0.1,5,5480677485237990798
0.9,0.1,0.5,0.1,0,5012800030425585882
0.9,0.1,0.5,0.1,6,7350899392677206571
0.9,0.1,0.5,0.1,1,7280529285784419125
0.9,0.1,0.5,0.1,7,328638057765288704
0.9,0.1,0.5,0.1,2,5378620983785119465
0.9,0.1,0.5,0.1,8,4372233583438722136
0.9,0.1,0.5,0.1,3,6894082263805140974
0.9,0.1,0.5,0.1,9,9162044008402493634
0.9,0.1,0.5,0.1,4,4298905017699102152
0.9,0.3,0.5,0.1,0,1069804801930446122
0.9,0.3,0.5,0.1,2,2857258714527679557
0.9,0.3,0.5,0.1,1,4748139562484902240
0.9,0.3,0.5,0.1,3,4613019022060409909
0.9,0.3,0.5,0.1,9,326497754126670673
0.9,0.3,0.5,0.1,4,2528627371304106665
0.9,0.5,0.5,0.1,0,4156101636489177433
0.9,0.3,0.5,0.1,5,8400393925476290910
0.9,0.5,0.5,0.1,1,5797287630467172544
0.9,0.3,0.5,0.1,6,8518043883379868035
0.9,0.5,0.5,0.1,2,6826910915124110035
0.9,0.3,0.5,0.1,7,1776538487766973738
0.9,0.5,0.5,0.1,3,6665985525513512531
0.9,0.5,0.5,0.1,4,1129217679172633992
0.9,0.3,0.5,0.1,8,5072872846549848216
0.9,0.5,0.5,0.1,5,2821232578660706320
0.9,0.5,0.5,0.1,6,5469906886818602907
0.9,0.5,0.5,0.1,7,2905020231883983429
0.9,0.5,0.5,0.1,8,5155011941377117666
0.9,0.5,0.5,0.1,9,5721817450680462404
0.2,0.1,0.5,0.1,7,4422681040602285474
0.2,0.1,0.5,0.1,8,1529593451770494272
0.1,0.5,0.5,0.1,9,4860888290436578935
0.2,0.1,0.5,0.1,0,7922158690067545147
0.1,0.1,0.5,0.1,8,7357752895858223710
0.2,0.3,0.5,0.1,5,3855929579684647194
0.2,0.3,0.5,0.1,6,3342669117002809672
0.2,0.3,0.5,0.1,7,5974242938841108189
0.2,0.3,0.5,0.1,8,1537943682689056206
0.1,0.3,0.5,0.1,5,8907214703665223286
0.2,0.5,0.5,0.1,1,3954206499333335260
0.2,0.5,0.5,0.1,2,3065285443064412621
0.1,0.5,0.5,0.1,5,6772899308015407213
0.1,0.1,0.5,0.1,1,8377347414714367760
0.2,0.5,0.5,0.1,3,7566151627723737772
0.2,0.5,0.5,0.1,4,5590717453819696603
0.2,0.5,0.5,0.1,5,6136439865008856
0.2,0.1,0.5,0.1,9,4003185311312177668
0.1,0.1,0.5,0.1,9,5553665251435773783
0.2,0.1,0.5,0.1,1,4556728672785786735
0.1,0.1,0.5,0.1,2,5116049307245675162
0.1,0.3,0.5,0.1,6,2425832843065645376
0.1,0.5,0.5,0.1,6,4610057740756279637
0.2,0.3,0.5,0.1,0,4002292348956812000
0.1,0.1,0.5,0.1,3,8279455871069228425
0.2,0.1,0.5,0.1,2,2825867083400461362
0.1,0.3,0.5,0.1,0,2014989324299263437
0.1,0.3,0.5,0.1,7,2823540290956228991
0.1,0.5,0.5,0.1,7,7718169998668417768
0.2,0.3,0.5,0.1,1,2392498668543703881
0.2,0.1,0.5,0.1,3,674079427012733708
0.2,0.1,0.5,0.1,4,4114965710659892029
0.1,0.1,0.5,0.1,4,4217290349730002663
0.1,0.3,0.5,0.1,1,5877081537276295401
0.1,0.3,0.5,0.1,3,6556277829897622541
0.1,0.3,0.5,0.1,8,1781846830607221963
0.1,0.3,0.5,0.1,2,349642238544846560
0.1,0.1,0.5,0.1,5,8158171325785791168
0.1,0.1,0.5,0.1,6,8144106691029077458
0.1,0.3,0.5,0.1,9,7253047182611086726
0.1,0.5,0.5,0.1,0,7685111669222646427
0.1,0.1,1.0,0.0,8,5821881315245085791
0.1,0.3,1.0,0.0,6,4395079162198307742
0.1,0.3,1.0,0.0,4,8731555349388417364
0.1,0.5,1.0,0.0,0,4043417946195274155
0.1,0.5,1.0,0.0,6,7848235825365737808
0.2,0.1,1.0,0.0,4,3486250815758545005
0.2,0.3,1.0,0.0,0,1495853777122507967
0.2,0.1,1.0,0.0,8,5350923165882619816
0.2,0.3,1.0,0.0,6,8574723790129896799
0.2,0.5,1.0,0.0,2,2753439491102174836
0.2,0.5,1.0,0.0,6,6544268979802988297
0.3,0.1,1.0,0.0,2,2472529888554553197
0.3,0.1,1.0,0.0,4,8963038073932195025
0.1,0.1,1.0,0.0,2,5981669222437101763
0.3,0.1,1.0,0.0,8,2715412784024989403
0.1,0.1,1.0,0.0,6,4631883577056845263
0.1,0.1,1.0,0.0,4,1108257720428797314
0.1,0.3,1.0,0.0,2,1034300986033992322
0.1,0.5,1.0,0.0,8,1689500326156012782
0.2,0.1,1.0,0.0,0,4800658302763798135
0.2,0.1,1.0,0.0,2,2159244620907927033
0.2,0.5,1.0,0.0,0,7165358232118585462
0.2,0.5,1.0,0.0,4,2911264562114996926
0.2,0.5,1.0,0.0,8,6105717738624616899
0.1,0.1,1.0,0.0,0,6098391511978424798
0.1,0.3,1.0,0.0,8,8820613303580760960
0.1,0.5,1.0,0.0,4,8440097658802536103
0.1,0.5,1.0,0.0,2,3069258905639625024
0.2,0.3,1.0,0.0,2,2216638591886273567
0.2,0.3,1.0,0.0,8,1060262765619755552
0.2,0.3,1.0,0.0,4,3742867889646680459
0.3,0.1,1.0,0.0,6,3539060586178467952
0.1,0.3,1.0,0.0,0,6108317022446973285
0.2,0.1,1.0,0.0,6,1864211657805527404
0.3,0.1,1.0,0.0,0,3298980316583085500
0.2,0.5,1.0,0.0,5,6758463456129844289
0.2,0.5,1.0,0.0,9,6009103115285719300
0.2,0.3,1.0,0.0,7,3614768524535677157
0.2,0.5,1.0,0.0,7,6875499578030250114
0.1,0.5,1.0,0.0,7,3975593495934588101
0.2,0.3,1.0,0.0,5,6494480660436563393
0.2,0.5,1.0,0.0,1,162787850958871498
0.2,0.3,1.0,0.0,1,4337202984261168106
0.3,0.1,1.0,0.0,1,6254642985615771438
0.1,0.3,1.0,0.0,9,5815233151320030336
0.3,0.1,1.0,0.0,5,3203793648364201906
0.2,0.3,1.0,0.0,9,1388777113138143183
0.3,0.1,1.0,0.0,7,7547636081144528418
0.1,0.5,1.0,0.0,3,2261010463165134060
0.3,0.3,1.0,0.0,0,3944422313800900961
0.3,0.3,1.0,0.0,2,1471135188150031813
0.1,0.3,1.0,0.0,1,410619993205966646
0.3,0.3,1.0,0.0,4,3441518911000615968
0.1,0.5,1.0,0.0,1,4232967999196686900
0.1,0.3,1.0,0.0,5,8091324297389843428
0.2,0.3,1.0,0.0,3,2218674393233046432
0.3,0.3,1.0,0.0,6,8113683816958397077
0.2,0.5,1.0,0.0,3,892612801243766302
0.2,0.1,1.0,0.0,7,1688941688989479454
0.1,0.5,1.0,0.0,5,7705980595619846388
0.2,0.1,1.0,0.0,1,4900354402602472457
0.3,0.3,1.0,0.0,8,8820459978191219451
0.1,0.3,1.0,0.0,7,1695363682542592145
0.3,0.3,1.0,0.0,1,750658841828667452
0.3,0.5,1.0,0.0,0,567447376667150757
0.1,0.5,1.0,0.0,9,5914830780871590359
0.2,0.1,1.0,0.0,5,3769269058041764333
0.2,0.1,1.0,0.0,3,489538253647029807
0.3,0.5,1.0,0.0,2,4333568594357257057
0.3,0.5,1.0,0.0,4,6640621822406341272
0.3,0.3,1.0,0.0,7,78735637715099392
0.3,0.5,1.0,0.0,6,1899094344796694394
0.3,0.5,1.0,0.0,8,5944118811076958959
0.4,0.1,1.0,0.0,0,3768437596738925732
0.4,0.1,1.0,0.0,2,3488052138181248963
0.4,0.1,1.0,0.0,4,5892187844277614908
0.3,0.5,1.0,0.0,7,5637957172391244578
0.4,0.1,1.0,0.0,6,7050775654442675592
0.4,0.1,1.0,0.0,8,6766592990689670836
0.4,0.3,1.0,0.0,0,5318371248573290747
0.4,0.3,1.0,0.0,2,632367534270967934
0.3,0.3,1.0,0.0,5,1630008955905591755
0.4,0.3,1.0,0.0,1,2996360577512970052
0.4,0.3,1.0,0.0,3,1311048488542998870
0.4,0.3,1.0,0.0,4,8700355303747278163
0.4,0.3,1.0,0.0,6,6571639502026383102
0.4,0.3,1.0,0.0,8,6531416609768686660
0.4,0.1,1.0,0.0,3,6990953889085492890
0.4,0.1,1.0,0.0,1,8547870078519672924
0.4,0.5,1.0,0.0,0,5423881923231302464
0.1,0.1,1.0,0.0,7,868387113950791817
0.4,0.1,1.0,0.0,5,2099167138974026736
0.3,0.3,1.0,0.0,3,7987223714514285642
0.4,0.1,1.0,0.0,7,4583963187375188159
0.4,0.5,1.0,0.0,2,376467819534091684
0.4,0.1,1.0,0.0,9,5012100955208835517
0.2,0.1,1.0,0.0,9,4256204483373597356
0.4,0.5,1.0,0.0,4,5463666262315273376
0.4,0.3,1.0,0.0,5,4669179109651370378
0.4,0.5,1.0,0.0,6,2775329421568967766
0.4,0.3,1.0,0.0,9,3713118667687715618
0.3,0.5,1.0,0.0,9,6451102214148734726
0.4,0.3,1.0,0.0,7,8895347154887893115
0.4,0.5,1.0,0.0,8,5081549595203816555
0.5,0.1,1.0,0.0,0,2726500615874810411
0.4,0.5,1.0,0.0,1,414625731414300020
0.4,0.5,1.0,0.0,3,6613559450236865591
0.4,0.5,1.0,0.0,7,5767114661339811729
0.4,0.5,1.0,0.0,5,8769288703083530232
0.5,0.1,1.0,0.0,2,5161060626460937801
0.5,0.1,1.0,0.0,4,4577231246396725665
0.5,0.1,1.0,0.0,6,1016719387521043325
0.4,0.5,1.0,0.0,9,5189417616436661121
0.5,0.1,1.0,0.0,8,311512750503222818
0.1,0.1,1.0,0.0,5,2012687625310780547
0.5,0.3,1.0,0.0,0,8758479219332303494
0.5,0.3,1.0,0.0,2,8735424679322257633
0.5,0.3,1.0,0.0,4,2513220033619348936
0.5,0.3,1.0,0.0,6,8967556071611124487
0.5,0.3,1.0,0.0,8,8157012267890838475
0.5,0.5,1.0,0.0,0,8404145649568795214
0.3,0.5,1.0,0.0,1,6920253803907358136
0.3,0.5,1.0,0.0,3,8583678923428870033
0.5,0.5,1.0,0.0,2,1276882019054565695
0.3,0.3,1.0,0.0,9,2782372489229988798
0.5,0.5,1.0,0.0,4,1980542676034600305
0.5,0.5,1.0,0.0,6,3902863605395761185
0.5,0.5,1.0,0.0,8,6552859925040378887
0.6,0.1,1.0,0.0,0,3590680932123397134
0.5,0.3,1.0,0.0,1,2135085753182393509
0.6,0.1,1.0,0.0,2,30491354465264203
0.5,0.3,1.0,0.0,3,1272443274841242725
0.6,0.1,1.0,0.0,4,4407793067704845641
0.5,0.1,1.0,0.0,1,4874483535962473347
0.5,0.3,1.0,0.0,5,1232270747633151411
0.5,0.3,1.0,0.0,9,571101029661002403
0.5,0.5,1.0,0.0,1,4182941399985119790
0.6,0.1,1.0,0.0,6,1034766952397353244
0.5,0.3,1.0,0.0,7,8886372996632273412
0.5,0.5,1.0,0.0,3,7638722597465181831
0.5,0.5,1.0,0.0,5,9120640026878772418
0.5,0.5,1.0,0.0,9,1976883321577282448
0.5,0.5,1.0,0.0,7,1475806552681369469
0.1,0.1,1.0,0.0,3,7336083550739234529
0.5,0.1,1.0,0.0,5,884123806099215190
0.5,0.1,1.0,0.0,7,1248057444244657965
0.1,0.1,1.0,0.0,9,6426205241707902553
0.5,0.1,1.0,0.0,3,3292193145309789290
0.6,0.1,1.0,0.0,8,45297543109573252
0.5,0.1,1.0,0.0,9,7707657649286552714
0.6,0.3,1.0,0.0,0,412974693201940627
0.6,0.3,1.0,0.0,2,914004524018850534
0.6,0.3,1.0,0.0,4,6537805407052858728
0.6,0.3,1.0,0.0,6,2605086262831404249
0.6,0.3,1.0,0.0,8,1334403309806163779
0.6,0.5,1.0,0.0,0,6613858679837641803
0.6,0.5,1.0,0.0,2,1687271629240509321
0.6,0.5,1.0,0.0,4,3044000189366030238
0.6,0.5,1.0,0.0,6,4515199930263018898
0.6,0.5,1.0,0.0,8,5251552977984467685
0.7,0.1,1.0,0.0,0,932855624909741335
0.7,0.1,1.0,0.0,2,3791572729720776751
0.6,0.1,1.0,0.0,1,2508167561809999481
0.6,0.3,1.0,0.0,3,1577734944674340876
0.6,0.3,1.0,0.0,1,8038931128937007305
0.6,0.5,1.0,0.0,1,6398165739076829289
0.7,0.1,1.0,0.0,4,2171629763648099292
0.6,0.3,1.0,0.0,7,6979237678081068173
0.6,0.3,1.0,0.0,5,3994370568286464939
0.6,0.5,1.0,0.0,9,7188428205575188153
0.6,0.5,1.0,0.0,7,8734191681308213889
0.6,0.5,1.0,0.0,5,7674866644647360495
0.6,0.5,1.0,0.0,3,5031815237025965260
0.6,0.3,1.0,0.0,9,5767259218970023294
0.6,0.1,1.0,0.0,5,5883778386171485681
0.6,0.1,1.0,0.0,3,3471290517044026565
0.1,0.3,1.0,0.0,3,8681157371146050749
0.6,0.1,1.0,0.0,7,3957956457865728687
0.7,0.1,1.0,0.0,6,5517482261441294785
0.7,0.1,1.0,0.0,8,4252468087995493858
0.7,0.3,1.0,0.0,0,2615562006367963352
0.7,0.3,1.0,0.0,2,2751181287795087226
0.7,0.3,1.0,0.0,4,2570384646153868531
0.7,0.3,1.0,0.0,6,9139343446318064177
0.7,0.3,1.0,0.0,8,89200360114251224
0.7,0.5,1.0,0.0,0,642277734172363789
0.7,0.5,1.0,0.0,2,1455981045467064109
0.7,0.5,1.0,0.0,4,5872896144073163877
0.7,0.5,1.0,0.0,6,2473749825035924277
0.7,0.5,1.0,0.0,8,8241523043652121885
0.8,0.1,1.0,0.0,0,4421781997637369063
0.8,0.1,1.0,0.0,2,4608248904293753490
0.6,0.1,1.0,0.0,9,5694817155422791511
0.8,0.1,1.0,0.0,4,4425407288069578287
0.7,0.1,1.0,0.0,1,2998036023000650076
0.8,0.1,1.0,0.0,6,674829395048935175
0.7,0.3,1.0,0.0,3,8200107839500150131
0.7,0.1,1.0,0.0,3,3516754343573748989
0.7,0.5,1.0,0.0,5,8685883561103273351
0.7,0.3,1.0,0.0,7,315666383668886556
0.7,0.3,1.0,0.0,1,8512170151699107101
0.7,0.3,1.0,0.0,5,1838818212079467221
0.7,0.5,1.0,0.0,3,8133944627507144142
0.7,0.5,1.0,0.0,9,4907979738627648840
0.7,0.5,1.0,0.0,1,3864466197258622279
0.7,0.5,1.0,0.0,7,1655186473156216676
0.7,0.3,1.0,0.0,9,3315167300467375533
0.7,0.1,1.0,0.0,5,7631553619941930398
0.8,0.1,1.0,0.0,8,1714187746945851242
0.8,0.3,1.0,0.0,0,691521399564499432
0.8,0.3,1.0,0.0,2,6496795429720594464
0.8,0.3,1.0,0.0,4,8908007507458775275
0.8,0.3,1.0,0.0,6,259664405816297931
0.8,0.3,1.0,0.0,8,7364594098594982869
0.8,0.5,1.0,0.0,0,1033602447433478234
0.8,0.5,1.0,0.0,2,4784415638726411045
0.8,0.5,1.0,0.0,4,7954552474777495103
0.8,0.5,1.0,0.0,6,5531566605909671180
0.8,0.5,1.0,0.0,8,5988102279203220964
0.9,0.1,1.0,0.0,0,5489026918080886176
0.9,0.1,1.0,0.0,2,6587367448853609380
0.9,0.1,1.0,0.0,4,3005241922822365248
0.7,0.1,1.0,0.0,9,6547781979339245954
0.9,0.1,1.0,0.0,6,1259246614589872735
0.7,0.1,1.0,0.0,7,5285628801076202347
0.8,0.1,1.0,0.0,1,1901937137372351
0.8,0.5,1.0,0.0,3,5567806873882288444
0.8,0.5,1.0,0.0,1,1727007567641861869
0.9,0.1,1.0,0.0,8,5912259371047757196
0.8,0.3,1.0,0.0,3,954033642065895793
0.9,0.3,1.0,0.0,0,2588672746416559484
0.8,0.5,1.0,0.0,9,6884287064106068156
0.8,0.3,1.0,0.0,5,3179105685796833048
0.8,0.1,1.0,0.0,3,7874338711472834903
0.8,0.3,1.0,0.0,1,4846813560681283291
0.8,0.3,1.0,0.0,9,8085351848924482747
0.8,0.5,1.0,0.0,5,73611702519664728
0.8,0.5,1.0,0.0,7,614068443930844554
0.8,0.1,1.0,0.0,5,7208256974679478791
0.8,0.1,1.0,0.0,7,5759979979636928984
0.8,0.3,1.0,0.0,7,5127708948757204557
0.9,0.3,1.0,0.0,2,8822613798521717264
0.9,0.3,1.0,0.0,4,8500757718446563226
0.9,0.3,1.0,0.0,6,8617674342080792666
0.9,0.3,1.0,0.0,8,4899081456890790256
0.9,0.5,1.0,0.0,0,881821026535456598
0.9,0.5,1.0,0.0,2,1462466621292380246
0.9,0.5,1.0,0.0,4,2523133497865161826
0.9,0.3,1.0,0.0,1,3222986622006784186
0.8,0.1,1.0,0.0,9,4867875526061607602
0.9,0.5,1.0,0.0,6,2904924345973444492
0.9,0.5,1.0,0.0,8,2173866920892383031
0.9,0.1,1.0,0.0,3,2312682259436849865
0.9,0.3,1.0,0.0,3,8027517853325324166
0.9,0.5,1.0,0.0,1,179797043039525488
0.9,0.1,1.0,0.0,1,8788970769177167526
0.9,0.3,1.0,0.0,5,107456579391789284
0.9,0.5,1.0,0.0,3,9085426078465094082
0.9,0.5,1.0,0.0,5,4051020478322882656
0.9,0.1,1.0,0.0,7,7224356102771508204
0.9,0.3,1.0,0.0,9,2242883239735323732
0.9,0.5,1.0,0.0,7,2310538312341424770
0.9,0.3,1.0,0.0,7,3235320366408103454
0.9,0.1,1.0,0.0,5,6021782316884548224
0.9,0.1,1.0,0.0,9,2934302734805572233
0.9,0.5,1.0,0.0,9,4478298808922214087
0.3,0.5,1.0,0.0,5,616915186264817938
0.3,0.1,1.0,0.0,3,2358693308727933593
0.3,0.1,1.0,0.0,9,5597158737787126133
0.1,0.1,1.0,0.0,1,7239013894545291453
